Final-Project/iverilog.vcd
$date
	Wed Mar  8 14:18:26 2023
$end
$version
	Icarus Verilog
$end
$timescale
	1ps
$end
$scope module axis_i2s2 $end
$var wire 1 ! axis_clk $end
$var wire 1 " axis_resetn $end
$var wire 1 # mclk $end
$var wire 1 $ rx_axis_p_ready $end
$var wire 1 % rx_lrck $end
$var wire 1 & rx_mclk $end
$var wire 1 ' rx_sclk $end
$var wire 1 ( rx_sdin $end
$var wire 32 ) tx_axis_c_data [31:0] $end
$var wire 1 * tx_axis_c_last $end
$var wire 1 + tx_axis_c_valid $end
$var wire 1 , tx_lrck $end
$var wire 1 - tx_mclk $end
$var wire 1 . tx_sclk $end
$var wire 1 / sclk $end
$var wire 32 0 rx_axis_p_data [31:0] $end
$var wire 1 1 lrck $end
$var wire 1 2 din_sync $end
$var reg 9 3 count [8:0] $end
$var reg 3 4 din_sync_shift [2:0] $end
$var reg 1 5 rx_axis_p_last $end
$var reg 1 6 rx_axis_p_valid $end
$var reg 32 7 rx_data_l [31:0] $end
$var reg 24 8 rx_data_l_shift [23:0] $end
$var reg 32 9 rx_data_r [31:0] $end
$var reg 24 : rx_data_r_shift [23:0] $end
$var reg 1 ; tx_axis_c_ready $end
$var reg 32 < tx_data_l [31:0] $end
$var reg 24 = tx_data_l_shift [23:0] $end
$var reg 32 > tx_data_r [31:0] $end
$var reg 24 ? tx_data_r_shift [23:0] $end
$var reg 1 @ tx_sdout $end
$upscope $end
$scope module testbench $end
$var wire 1 A reset_i $end
$var wire 1 B clk_i $end
$scope module cg $end
$var reg 1 B clk_o $end
$upscope $end
$scope module dut $end
$var wire 3 C button_async_unsafe_i [3:1] $end
$var wire 1 B clk_12mhz_i $end
$var wire 1 D clk_o $end
$var wire 32 E frequency_step [31:0] $end
$var wire 5 F led_o [5:1] $end
$var wire 1 G rx_data_clk_o $end
$var wire 1 H rx_data_i $end
$var wire 1 I rx_lr_clk_o $end
$var wire 1 J rx_main_clk_o $end
$var wire 1 K tx_data_clk_o $end
$var wire 1 L tx_data_o $end
$var wire 1 M tx_lr_clk_o $end
$var wire 1 N tx_main_clk_o $end
$var wire 24 O sine_val [23:0] $end
$var wire 1 P reset_sync_r $end
$var wire 1 Q reset_r $end
$var wire 1 R reset_n_sync_r $end
$var wire 1 A reset_n_async_unsafe_i $end
$var reg 32 S phase_l [31:0] $end
$scope module LUT $end
$var wire 1 B clk_i $end
$var wire 5 T rd_addr_i [4:0] $end
$var wire 24 U rd_data_o [23:0] $end
$var wire 5 V wr_addr_i [4:0] $end
$var wire 24 W wr_data_i [23:0] $end
$var wire 1 X wr_valid_i $end
$var wire 1 Q reset_i $end
$var reg 5 Y read_addr_l [4:0] $end
$upscope $end
$scope module inv $end
$var wire 1 P b_o $end
$var wire 1 R a_i $end
$upscope $end
$scope module sync_a $end
$var wire 1 D clk_i $end
$var wire 1 Z reset_i $end
$var wire 1 R q_o $end
$var wire 1 A d_i $end
$var reg 1 R q_r $end
$upscope $end
$scope module sync_b $end
$var wire 1 D clk_i $end
$var wire 1 P d_i $end
$var wire 1 Q q_o $end
$var wire 1 [ reset_i $end
$var reg 1 \ q_r $end
$upscope $end
$upscope $end
$scope module rg $end
$var wire 1 ] clk_i $end
$var wire 1 ^ phase_lo_r $end
$var wire 1 _ phase_hi_r $end
$var wire 1 ` in_phase_2 $end
$var wire 1 a in_phase_1 $end
$var wire 1 A async_reset_o $end
$var reg 4 b ctr_hi_r [3:0] $end
$var reg 1 c ctr_lo_r $end
$scope begin rof[0] $end
$upscope $end
$upscope $end
$upscope $end
$enddefinitions $end
#0
$dumpvars
0c
b0 b
0a
0`
0_
0^
0]
x\
0[
0Z
bx Y
0X
b0 W
b0 V
bx U
b0 T
b0 S
xR
xQ
xP
bx O
zN
zM
zL
zK
zJ
zI
zH
zG
bz F
b1000000000000000000000000000 E
zD
bz C
0B
0A
x@
b0 ?
b0 >
b0 =
b0 <
0;
b0 :
b0 9
b0 8
b0 7
06
05
b0 4
b0 3
02
01
b0 0
0/
0.
z-
0,
z+
z*
bz )
z(
0'
z&
0%
z$
z#
z"
z!
$end
#5000
b1 T
b0 O
b0 U
b0 Y
b1000000000000000000000000000 S
1]
1B
#10000
1A
1a
1^
1c
0]
0B
#15000
b10 T
b10000000000000000000000000000 S
b110001111100010111000 O
b110001111100010111000 U
b1 Y
1]
1B
#20000
b1 b
0]
0B
#25000
b11 T
b1100001111101111000101 O
b1100001111101111000101 U
b10 Y
b11000000000000000000000000000 S
1]
1B
#30000
b10 b
0]
0B
#35000
b100 T
b100000000000000000000000000000 S
b10001110001110011101100 O
b10001110001110011101100 U
b11 Y
1]
1B
#40000
b11 b
0]
0B
#45000
b101 T
b10110101000001001111001 O
b10110101000001001111001 U
b100 Y
b101000000000000000000000000000 S
1]
1B
#50000
b100 b
0]
0B
#55000
b110 T
b110000000000000000000000000000 S
b11010100110110110011000 O
b11010100110110110011000 U
b101 Y
1]
1B
#60000
b101 b
0]
0B
#65000
b111 T
b11101100100000110101111 O
b11101100100000110101111 U
b110 Y
b111000000000000000000000000000 S
1]
1B
#70000
b110 b
0]
0B
#75000
b1000 T
b1000000000000000000000000000000 S
b11111011000101001011111 O
b11111011000101001011111 U
b111 Y
1]
1B
#80000
b111 b
0]
0B
#85000
b1001 T
b11111111111111111111111 O
b11111111111111111111111 U
b1000 Y
b1001000000000000000000000000000 S
1]
1B
#90000
b1000 b
0]
0B
#95000
b1010 T
b1010000000000000000000000000000 S
b11111011000101001011111 O
b11111011000101001011111 U
b1001 Y
1]
1B
#100000
b1001 b
0]
0B
#105000
b1011 T
b11101100100000110101111 O
b11101100100000110101111 U
b1010 Y
b1011000000000000000000000000000 S
1]
1B
#110000
0A
1`
1_
b1010 b
0]
0B
#115000
b1100 T
b1100000000000000000000000000000 S
b11010100110110110011000 O
b11010100110110110011000 U
b1011 Y
1]
1B
#120000
0]
0B
#125000
b1101 T
b10110101000001001111001 O
b10110101000001001111001 U
b1100 Y
b1101000000000000000000000000000 S
1]
1B
#130000
0]
0B
#135000
b1110 T
b1110000000000000000000000000000 S
b10001110001110011101100 O
b10001110001110011101100 U
b1101 Y
1]
1B
#140000
0]
0B
#145000
b1111 T
b1100001111101111000101 O
b1100001111101111000101 U
b1110 Y
b1111000000000000000000000000000 S
1]
1B
#150000
0]
0B
#155000
b10000 T
b10000000000000000000000000000000 S
b110001111100010111000 O
b110001111100010111000 U
b1111 Y
1]
1B
#160000
0]
0B
#165000
b10001 T
b0 O
b0 U
b10000 Y
b10001000000000000000000000000000 S
1]
1B
#170000
0]
0B
#175000
b10010 T
b10010000000000000000000000000000 S
b111001110000011101001000 O
b111001110000011101001000 U
b10001 Y
1]
1B
#180000
0]
0B
#185000
b10011 T
b110011110000010000111011 O
b110011110000010000111011 U
b10010 Y
b10011000000000000000000000000000 S
1]
1B
#190000
0]
0B
#195000
b10100 T
b10100000000000000000000000000000 S
b101110001110001100010100 O
b101110001110001100010100 U
b10011 Y
1]
1B
#200000
0]
0B
#205000
b10101 T
b101001010111110110000111 O
b101001010111110110000111 U
b10100 Y
b10101000000000000000000000000000 S
1]
1B
#210000
0]
0B
#215000
b10110 T
b10110000000000000000000000000000 S
b100101011001001001101000 O
b100101011001001001101000 U
b10101 Y
1]
1B
#220000
0]
0B
#225000
b10111 T
b100010011011111001010001 O
b100010011011111001010001 U
b10110 Y
b10111000000000000000000000000000 S
1]
1B
#230000
0]
0B
#235000
b11000 T
b11000000000000000000000000000000 S
b100000100111010110100001 O
b100000100111010110100001 U
b10111 Y
1]
1B
#240000
0]
0B
#245000
b11001 T
b100000000000000000000000 O
b100000000000000000000000 U
b11000 Y
b11001000000000000000000000000000 S
1]
1B
#250000
0]
0B
#255000
b11010 T
b11010000000000000000000000000000 S
b100000100111010110100001 O
b100000100111010110100001 U
b11001 Y
1]
1B
#260000
0]
0B
#265000
b11011 T
b100010011011111001010001 O
b100010011011111001010001 U
b11010 Y
b11011000000000000000000000000000 S
1]
1B
#270000
0]
0B
#275000
b11100 T
b11100000000000000000000000000000 S
b100101011001001001101000 O
b100101011001001001101000 U
b11011 Y
1]
1B
#280000
0]
0B
#285000
b11101 T
b101001010111110110000111 O
b101001010111110110000111 U
b11100 Y
b11101000000000000000000000000000 S
1]
1B
#290000
0]
0B
#295000
b11110 T
b11110000000000000000000000000000 S
b101110001110001100010100 O
b101110001110001100010100 U
b11101 Y
1]
1B
#300000
0]
0B
#305000
b11111 T
b110011110000010000111011 O
b110011110000010000111011 U
b11110 Y
b11111000000000000000000000000000 S
1]
1B
#310000
0]
0B
#315000
b0 T
b0 S
b111001110000011101001000 O
b111001110000011101001000 U
b11111 Y
1]
1B
#320000
0]
0B
#325000
b1 T
b0 O
b0 U
b0 Y
b1000000000000000000000000000 S
1]
1B
#330000
0]
0B
#335000
b10 T
b10000000000000000000000000000 S
b110001111100010111000 O
b110001111100010111000 U
b1 Y
1]
1B
#340000
0]
0B
#345000
b11 T
b1100001111101111000101 O
b1100001111101111000101 U
b10 Y
b11000000000000000000000000000 S
1]
1B
#350000
0]
0B
#355000
b100 T
b100000000000000000000000000000 S
b10001110001110011101100 O
b10001110001110011101100 U
b11 Y
1]
1B
#360000
0]
0B
#365000
b101 T
b10110101000001001111001 O
b10110101000001001111001 U
b100 Y
b101000000000000000000000000000 S
1]
1B
#370000
0]
0B
#375000
b110 T
b110000000000000000000000000000 S
b11010100110110110011000 O
b11010100110110110011000 U
b101 Y
1]
1B
#380000
0]
0B
#385000
b111 T
b11101100100000110101111 O
b11101100100000110101111 U
b110 Y
b111000000000000000000000000000 S
1]
1B
#390000
0]
0B
#395000
b1000 T
b1000000000000000000000000000000 S
b11111011000101001011111 O
b11111011000101001011111 U
b111 Y
1]
1B
#400000
0]
0B
#405000
b1001 T
b11111111111111111111111 O
b11111111111111111111111 U
b1000 Y
b1001000000000000000000000000000 S
1]
1B
#410000
0]
0B
#415000
b1010 T
b1010000000000000000000000000000 S
b11111011000101001011111 O
b11111011000101001011111 U
b1001 Y
1]
1B
#420000
0]
0B
#425000
b1011 T
b11101100100000110101111 O
b11101100100000110101111 U
b1010 Y
b1011000000000000000000000000000 S
1]
1B
#430000
0]
0B
#435000
b1100 T
b1100000000000000000000000000000 S
b11010100110110110011000 O
b11010100110110110011000 U
b1011 Y
1]
1B
#440000
0]
0B
#445000
b1101 T
b10110101000001001111001 O
b10110101000001001111001 U
b1100 Y
b1101000000000000000000000000000 S
1]
1B
#450000
0]
0B
#455000
b1110 T
b1110000000000000000000000000000 S
b10001110001110011101100 O
b10001110001110011101100 U
b1101 Y
1]
1B
#460000
0]
0B
#465000
b1111 T
b1100001111101111000101 O
b1100001111101111000101 U
b1110 Y
b1111000000000000000000000000000 S
1]
1B
#470000
0]
0B
#475000
b10000 T
b10000000000000000000000000000000 S
b110001111100010111000 O
b110001111100010111000 U
b1111 Y
1]
1B
#480000
0]
0B
#485000
b10001 T
b0 O
b0 U
b10000 Y
b10001000000000000000000000000000 S
1]
1B
#490000
0]
0B
#495000
b10010 T
b10010000000000000000000000000000 S
b111001110000011101001000 O
b111001110000011101001000 U
b10001 Y
1]
1B
#500000
0]
0B
#505000
b10011 T
b110011110000010000111011 O
b110011110000010000111011 U
b10010 Y
b10011000000000000000000000000000 S
1]
1B
#510000
0]
0B
#515000
b10100 T
b10100000000000000000000000000000 S
b101110001110001100010100 O
b101110001110001100010100 U
b10011 Y
1]
1B
#520000
0]
0B
#525000
b10101 T
b101001010111110110000111 O
b101001010111110110000111 U
b10100 Y
b10101000000000000000000000000000 S
1]
1B
#530000
0]
0B
#535000
b10110 T
b10110000000000000000000000000000 S
b100101011001001001101000 O
b100101011001001001101000 U
b10101 Y
1]
1B
#540000
0]
0B
#545000
b10111 T
b100010011011111001010001 O
b100010011011111001010001 U
b10110 Y
b10111000000000000000000000000000 S
1]
1B
#550000
0]
0B
#555000
b11000 T
b11000000000000000000000000000000 S
b100000100111010110100001 O
b100000100111010110100001 U
b10111 Y
1]
1B
#560000
0]
0B
#565000
b11001 T
b100000000000000000000000 O
b100000000000000000000000 U
b11000 Y
b11001000000000000000000000000000 S
1]
1B
#570000
0]
0B
#575000
b11010 T
b11010000000000000000000000000000 S
b100000100111010110100001 O
b100000100111010110100001 U
b11001 Y
1]
1B
#580000
0]
0B
#585000
b11011 T
b100010011011111001010001 O
b100010011011111001010001 U
b11010 Y
b11011000000000000000000000000000 S
1]
1B
#590000
0]
0B
#595000
b11100 T
b11100000000000000000000000000000 S
b100101011001001001101000 O
b100101011001001001101000 U
b11011 Y
1]
1B
#600000
0]
0B
#605000
b11101 T
b101001010111110110000111 O
b101001010111110110000111 U
b11100 Y
b11101000000000000000000000000000 S
1]
1B
#610000
0]
0B
#615000
b11110 T
b11110000000000000000000000000000 S
b101110001110001100010100 O
b101110001110001100010100 U
b11101 Y
1]
1B
#620000
0]
0B
#625000
b11111 T
b110011110000010000111011 O
b110011110000010000111011 U
b11110 Y
b11111000000000000000000000000000 S
1]
1B
#630000
0]
0B
#635000
b0 T
b0 S
b111001110000011101001000 O
b111001110000011101001000 U
b11111 Y
1]
1B
#640000
0]
0B
#645000
b1 T
b0 O
b0 U
b0 Y
b1000000000000000000000000000 S
1]
1B
#650000
0]
0B
#655000
b10 T
b10000000000000000000000000000 S
b110001111100010111000 O
b110001111100010111000 U
b1 Y
1]
1B
#660000
0]
0B
#665000
b11 T
b1100001111101111000101 O
b1100001111101111000101 U
b10 Y
b11000000000000000000000000000 S
1]
1B
#670000
0]
0B
#675000
b100 T
b100000000000000000000000000000 S
b10001110001110011101100 O
b10001110001110011101100 U
b11 Y
1]
1B
#680000
0]
0B
#685000
b101 T
b10110101000001001111001 O
b10110101000001001111001 U
b100 Y
b101000000000000000000000000000 S
1]
1B
#690000
0]
0B
#695000
b110 T
b110000000000000000000000000000 S
b11010100110110110011000 O
b11010100110110110011000 U
b101 Y
1]
1B
#700000
0]
0B
#705000
b111 T
b11101100100000110101111 O
b11101100100000110101111 U
b110 Y
b111000000000000000000000000000 S
1]
1B
#710000
0]
0B
#715000
b1000 T
b1000000000000000000000000000000 S
b11111011000101001011111 O
b11111011000101001011111 U
b111 Y
1]
1B
#720000
0]
0B
#725000
b1001 T
b11111111111111111111111 O
b11111111111111111111111 U
b1000 Y
b1001000000000000000000000000000 S
1]
1B
#730000
0]
0B
#735000
b1010 T
b1010000000000000000000000000000 S
b11111011000101001011111 O
b11111011000101001011111 U
b1001 Y
1]
1B
#740000
0]
0B
#745000
b1011 T
b11101100100000110101111 O
b11101100100000110101111 U
b1010 Y
b1011000000000000000000000000000 S
1]
1B
#750000
0]
0B
#755000
b1100 T
b1100000000000000000000000000000 S
b11010100110110110011000 O
b11010100110110110011000 U
b1011 Y
1]
1B
#760000
0]
0B
#765000
b1101 T
b10110101000001001111001 O
b10110101000001001111001 U
b1100 Y
b1101000000000000000000000000000 S
1]
1B
#770000
0]
0B
#775000
b1110 T
b1110000000000000000000000000000 S
b10001110001110011101100 O
b10001110001110011101100 U
b1101 Y
1]
1B
#780000
0]
0B
#785000
b1111 T
b1100001111101111000101 O
b1100001111101111000101 U
b1110 Y
b1111000000000000000000000000000 S
1]
1B
#790000
0]
0B
#795000
b10000 T
b10000000000000000000000000000000 S
b110001111100010111000 O
b110001111100010111000 U
b1111 Y
1]
1B
#800000
0]
0B
#805000
b10001 T
b0 O
b0 U
b10000 Y
b10001000000000000000000000000000 S
1]
1B
#810000
0]
0B
#815000
b10010 T
b10010000000000000000000000000000 S
b111001110000011101001000 O
b111001110000011101001000 U
b10001 Y
1]
1B
#820000
0]
0B
#825000
b10011 T
b110011110000010000111011 O
b110011110000010000111011 U
b10010 Y
b10011000000000000000000000000000 S
1]
1B
#830000
0]
0B
#835000
b10100 T
b10100000000000000000000000000000 S
b101110001110001100010100 O
b101110001110001100010100 U
b10011 Y
1]
1B
#840000
0]
0B
#845000
b10101 T
b101001010111110110000111 O
b101001010111110110000111 U
b10100 Y
b10101000000000000000000000000000 S
1]
1B
#850000
0]
0B
#855000
b10110 T
b10110000000000000000000000000000 S
b100101011001001001101000 O
b100101011001001001101000 U
b10101 Y
1]
1B
#860000
0]
0B
#865000
b10111 T
b100010011011111001010001 O
b100010011011111001010001 U
b10110 Y
b10111000000000000000000000000000 S
1]
1B
#870000
0]
0B
#875000
b11000 T
b11000000000000000000000000000000 S
b100000100111010110100001 O
b100000100111010110100001 U
b10111 Y
1]
1B
#880000
0]
0B
#885000
b11001 T
b100000000000000000000000 O
b100000000000000000000000 U
b11000 Y
b11001000000000000000000000000000 S
1]
1B
#890000
0]
0B
#895000
b11010 T
b11010000000000000000000000000000 S
b100000100111010110100001 O
b100000100111010110100001 U
b11001 Y
1]
1B
#900000
0]
0B
#905000
b11011 T
b100010011011111001010001 O
b100010011011111001010001 U
b11010 Y
b11011000000000000000000000000000 S
1]
1B
#910000
0]
0B
#915000
b11100 T
b11100000000000000000000000000000 S
b100101011001001001101000 O
b100101011001001001101000 U
b11011 Y
1]
1B
#920000
0]
0B
#925000
b11101 T
b101001010111110110000111 O
b101001010111110110000111 U
b11100 Y
b11101000000000000000000000000000 S
1]
1B
#930000
0]
0B
#935000
b11110 T
b11110000000000000000000000000000 S
b101110001110001100010100 O
b101110001110001100010100 U
b11101 Y
1]
1B
#940000
0]
0B
#945000
b11111 T
b110011110000010000111011 O
b110011110000010000111011 U
b11110 Y
b11111000000000000000000000000000 S
1]
1B
#950000
0]
0B
#955000
b0 T
b0 S
b111001110000011101001000 O
b111001110000011101001000 U
b11111 Y
1]
1B
#960000
0]
0B
#965000
b1 T
b0 O
b0 U
b0 Y
b1000000000000000000000000000 S
1]
1B
#970000
0]
0B
#975000
b10 T
b10000000000000000000000000000 S
b110001111100010111000 O
b110001111100010111000 U
b1 Y
1]
1B
#980000
0]
0B
#985000
b11 T
b1100001111101111000101 O
b1100001111101111000101 U
b10 Y
b11000000000000000000000000000 S
1]
1B
#990000
0]
0B
#995000
b100 T
b100000000000000000000000000000 S
b10001110001110011101100 O
b10001110001110011101100 U
b11 Y
1]
1B
