Final-Project/Game_dev/iverilog.vcd
$date
	Sun Mar 19 19:57:22 2023
$end
$version
	Icarus Verilog
$end
$timescale
	1ps
$end
$scope module axis_i2s2 $end
$var wire 1 ! axis_clk $end
$var wire 1 " axis_resetn $end
$var wire 1 # mclk $end
$var wire 1 $ rx_axis_p_ready $end
$var wire 1 % rx_lrck $end
$var wire 1 & rx_mclk $end
$var wire 1 ' rx_sclk $end
$var wire 1 ( rx_sdin $end
$var wire 32 ) tx_axis_c_data [31:0] $end
$var wire 1 * tx_axis_c_last $end
$var wire 1 + tx_axis_c_valid $end
$var wire 1 , tx_lrck $end
$var wire 1 - tx_mclk $end
$var wire 1 . tx_sclk $end
$var wire 1 / sclk $end
$var wire 32 0 rx_axis_p_data [31:0] $end
$var wire 1 1 lrck $end
$var wire 1 2 din_sync $end
$var reg 9 3 count [8:0] $end
$var reg 3 4 din_sync_shift [2:0] $end
$var reg 1 5 rx_axis_p_last $end
$var reg 1 6 rx_axis_p_valid $end
$var reg 32 7 rx_data_l [31:0] $end
$var reg 24 8 rx_data_l_shift [23:0] $end
$var reg 32 9 rx_data_r [31:0] $end
$var reg 24 : rx_data_r_shift [23:0] $end
$var reg 1 ; tx_axis_c_ready $end
$var reg 32 < tx_data_l [31:0] $end
$var reg 24 = tx_data_l_shift [23:0] $end
$var reg 32 > tx_data_r [31:0] $end
$var reg 24 ? tx_data_r_shift [23:0] $end
$var reg 1 @ tx_sdout $end
$upscope $end
$scope module dff $end
$var wire 1 A clk_i $end
$var wire 1 B d_i $end
$var wire 1 C q_o $end
$var wire 1 D reset_i $end
$var reg 1 E q_r $end
$upscope $end
$scope module inv $end
$var wire 1 F a_i $end
$var wire 1 G b_o $end
$upscope $end
$scope module lfsr $end
$var wire 1 H clk_i $end
$var wire 5 I data_o [4:0] $end
$var wire 1 J reset_i $end
$var reg 5 K dff_l [4:0] $end
$scope begin genblk1[1] $end
$upscope $end
$scope begin genblk1[2] $end
$upscope $end
$scope begin genblk1[3] $end
$upscope $end
$scope begin genblk1[4] $end
$upscope $end
$upscope $end
$scope module shift $end
$var wire 1 L clk_i $end
$var wire 1 M data_i $end
$var wire 5 N data_o [4:0] $end
$var wire 1 O reset_i $end
$var reg 5 P data_c [4:0] $end
$upscope $end
$scope module testbench $end
$var wire 1 Q second $end
$var wire 1 R reset_i $end
$var wire 32 S fstep_o [31:0] $end
$var wire 1 T clk_i $end
$var reg 1 U startbutton_i $end
$scope module cg $end
$var reg 1 T clk_o $end
$upscope $end
$scope module dut $end
$var wire 1 T clk_i $end
$var wire 32 V fstep_o [31:0] $end
$var wire 1 U startbutton_i $end
$var wire 1 Q second $end
$var wire 1 R reset_i $end
$var wire 25 W playcounterout [24:0] $end
$var wire 25 X pausecounterout [24:0] $end
$var wire 1 Y endofnotes $end
$var reg 32 Z cfstep_l [31:0] $end
$var reg 2 [ cstate_l [1:0] $end
$var reg 5 \ ncounter [4:0] $end
$var reg 32 ] nfstep_l [31:0] $end
$var reg 2 ^ nstate_l [1:0] $end
$var reg 1 _ pausecounter_reset $end
$var reg 1 ` pausecounterup $end
$var reg 1 a playcounter_reset $end
$var reg 1 b playcounterup $end
$scope module pausecounter_inst $end
$var wire 1 T clk_i $end
$var wire 25 c counter_o [24:0] $end
$var wire 1 d down_i $end
$var wire 1 e reset_i $end
$var wire 1 ` up_i $end
$var wire 1 f ofv $end
$var wire 25 g dffin_l [24:0] $end
$var reg 25 h addin_l [24:0] $end
$var reg 25 i dffout_l [24:0] $end
$scope begin genblk1[0] $end
$upscope $end
$scope begin genblk1[1] $end
$upscope $end
$scope begin genblk1[2] $end
$upscope $end
$scope begin genblk1[3] $end
$upscope $end
$scope begin genblk1[4] $end
$upscope $end
$scope begin genblk1[5] $end
$upscope $end
$scope begin genblk1[6] $end
$upscope $end
$scope begin genblk1[7] $end
$upscope $end
$scope begin genblk1[8] $end
$upscope $end
$scope begin genblk1[9] $end
$upscope $end
$scope begin genblk1[10] $end
$upscope $end
$scope begin genblk1[11] $end
$upscope $end
$scope begin genblk1[12] $end
$upscope $end
$scope begin genblk1[13] $end
$upscope $end
$scope begin genblk1[14] $end
$upscope $end
$scope begin genblk1[15] $end
$upscope $end
$scope begin genblk1[16] $end
$upscope $end
$scope begin genblk1[17] $end
$upscope $end
$scope begin genblk1[18] $end
$upscope $end
$scope begin genblk1[19] $end
$upscope $end
$scope begin genblk1[20] $end
$upscope $end
$scope begin genblk1[21] $end
$upscope $end
$scope begin genblk1[22] $end
$upscope $end
$scope begin genblk1[23] $end
$upscope $end
$scope begin genblk1[24] $end
$upscope $end
$scope module adder_inst $end
$var wire 25 j a_i [24:0] $end
$var wire 25 k b_i [24:0] $end
$var wire 26 l sum_o [25:0] $end
$upscope $end
$upscope $end
$scope module playcounter_inst $end
$var wire 1 T clk_i $end
$var wire 25 m counter_o [24:0] $end
$var wire 1 n down_i $end
$var wire 1 o reset_i $end
$var wire 1 b up_i $end
$var wire 1 p ofv $end
$var wire 25 q dffin_l [24:0] $end
$var reg 25 r addin_l [24:0] $end
$var reg 25 s dffout_l [24:0] $end
$scope begin genblk1[0] $end
$upscope $end
$scope begin genblk1[1] $end
$upscope $end
$scope begin genblk1[2] $end
$upscope $end
$scope begin genblk1[3] $end
$upscope $end
$scope begin genblk1[4] $end
$upscope $end
$scope begin genblk1[5] $end
$upscope $end
$scope begin genblk1[6] $end
$upscope $end
$scope begin genblk1[7] $end
$upscope $end
$scope begin genblk1[8] $end
$upscope $end
$scope begin genblk1[9] $end
$upscope $end
$scope begin genblk1[10] $end
$upscope $end
$scope begin genblk1[11] $end
$upscope $end
$scope begin genblk1[12] $end
$upscope $end
$scope begin genblk1[13] $end
$upscope $end
$scope begin genblk1[14] $end
$upscope $end
$scope begin genblk1[15] $end
$upscope $end
$scope begin genblk1[16] $end
$upscope $end
$scope begin genblk1[17] $end
$upscope $end
$scope begin genblk1[18] $end
$upscope $end
$scope begin genblk1[19] $end
$upscope $end
$scope begin genblk1[20] $end
$upscope $end
$scope begin genblk1[21] $end
$upscope $end
$scope begin genblk1[22] $end
$upscope $end
$scope begin genblk1[23] $end
$upscope $end
$scope begin genblk1[24] $end
$upscope $end
$scope module adder_inst $end
$var wire 25 t a_i [24:0] $end
$var wire 25 u b_i [24:0] $end
$var wire 26 v sum_o [25:0] $end
$upscope $end
$upscope $end
$upscope $end
$scope module rg $end
$var wire 1 w clk_i $end
$var wire 1 x phase_lo_r $end
$var wire 1 y phase_hi_r $end
$var wire 1 z in_phase_2 $end
$var wire 1 { in_phase_1 $end
$var wire 1 R async_reset_o $end
$var reg 2 | ctr_hi_r [1:0] $end
$var reg 2 } ctr_lo_r [1:0] $end
$scope begin rof[0] $end
$upscope $end
$upscope $end
$upscope $end
$enddefinitions $end
#0
$dumpvars
b0 }
b0 |
0{
0z
0y
0x
0w
bx v
b0 u
bx t
bx s
b0 r
bx q
xp
xo
0n
bx m
bx l
b0 k
bx j
bx i
b0 h
bx g
xf
xe
0d
bx c
xb
xa
x`
x_
b0 ^
bx ]
bx \
b0 [
bx Z
xY
bx X
bx W
bx V
0U
0T
bx S
0R
xQ
bx P
zO
bx N
zM
zL
bx K
zJ
bx I
zH
zG
zF
xE
zD
xC
zB
zA
x@
b0 ?
b0 >
b0 =
b0 <
0;
b0 :
b0 9
b0 8
b0 7
06
05
b0 4
b0 3
02
01
b0 0
0/
0.
z-
0,
z+
z*
bz )
z(
0'
z&
0%
z$
z#
z"
z!
$end
#22000
0e
0o
0Y
b0 \
0`
0b
0_
0a
1w
1T
#44000
b1 }
0w
0T
#66000
1w
1T
#88000
1e
1o
1R
1{
1x
b10 }
0w
0T
#110000
b0 q
0p
0Q
b0 g
0f
b0 v
b0 W
b0 m
b0 s
b0 t
b0 l
b0 X
b0 c
b0 i
b0 j
b0 S
b0 V
b0 Z
1w
1T
#132000
b1 |
0w
0T
#154000
b0 ]
1w
1T
#176000
0e
0o
0R
1z
1y
b10 |
0w
0T
#198000
1w
1T
#220000
0w
0T
#242000
1w
1T
#264000
0w
0T
#286000
1w
1T
#308000
0w
0T
#330000
1w
1T
#352000
0w
0T
#374000
1w
1T
#396000
0w
0T
#418000
1w
1T
#440000
0w
0T
#462000
1w
1T
#484000
0w
0T
#500000
1U
#506000
b1 [
b1 ^
1w
1T
#528000
0w
0T
#550000
b1 q
b1 v
b1 r
b1 u
1b
b10010000001011011110000000 ]
1w
1T
#572000
0w
0T
#594000
b10 q
b10010000001011011110000000 S
b10010000001011011110000000 V
b10010000001011011110000000 Z
b10 v
b1 W
b1 m
b1 s
b1 t
b10010000001011011110000000 ]
1w
1T
#600000
0U
#616000
0w
0T
#638000
b11 q
b11 v
b10 W
b10 m
b10 s
b10 t
1w
1T
#660000
0w
0T
#682000
b100 q
b100 v
b11 W
b11 m
b11 s
b11 t
1w
1T
#704000
0w
0T
#726000
b101 q
b101 v
b100 W
b100 m
b100 s
b100 t
1w
1T
#748000
0w
0T
#770000
b110 q
b110 v
b101 W
b101 m
b101 s
b101 t
1w
1T
#792000
0w
0T
#814000
b111 q
b111 v
b110 W
b110 m
b110 s
b110 t
1w
1T
#836000
0w
0T
#858000
b1000 q
b1000 v
b111 W
b111 m
b111 s
b111 t
1w
1T
#880000
0w
0T
#902000
b1001 q
b1001 v
b1000 W
b1000 m
b1000 s
b1000 t
1w
1T
#924000
0w
0T
#946000
b1010 q
b1010 v
b1001 W
b1001 m
b1001 s
b1001 t
1w
1T
#968000
0w
0T
#990000
b1011 q
b1011 v
b1010 W
b1010 m
b1010 s
b1010 t
1w
1T
#1012000
0w
0T
#1034000
b1100 q
b1100 v
b1011 W
b1011 m
b1011 s
b1011 t
1w
1T
#1056000
0w
0T
#1078000
b1101 q
b1101 v
b1100 W
b1100 m
b1100 s
b1100 t
1w
1T
#1100000
0w
0T
#1122000
b1110 q
b1110 v
b1101 W
b1101 m
b1101 s
b1101 t
1w
1T
#1144000
0w
0T
#1166000
b1111 q
b1111 v
b1110 W
b1110 m
b1110 s
b1110 t
1w
1T
#1188000
0w
0T
#1210000
b10000 q
b10000 v
b1111 W
b1111 m
b1111 s
b1111 t
1w
1T
#1232000
0w
0T
#1254000
b10001 q
b10001 v
b10000 W
b10000 m
b10000 s
b10000 t
1w
1T
#1276000
0w
0T
#1298000
b10010 q
b10010 v
b10001 W
b10001 m
b10001 s
b10001 t
1w
1T
#1320000
0w
0T
#1342000
b10011 q
b10011 v
b10010 W
b10010 m
b10010 s
b10010 t
1w
1T
#1364000
0w
0T
#1386000
b10100 q
b10100 v
b10011 W
b10011 m
b10011 s
b10011 t
1w
1T
#1408000
0w
0T
#1430000
b10101 q
b10101 v
b10100 W
b10100 m
b10100 s
b10100 t
1w
1T
#1452000
0w
0T
#1474000
b10110 q
b10110 v
b10101 W
b10101 m
b10101 s
b10101 t
1w
1T
#1496000
0w
0T
#1518000
b10111 q
b10111 v
b10110 W
b10110 m
b10110 s
b10110 t
1w
1T
#1540000
0w
0T
#1562000
b11000 q
b11000 v
b10111 W
b10111 m
b10111 s
b10111 t
1w
1T
#1584000
0w
0T
#1606000
b11001 q
b11001 v
b11000 W
b11000 m
b11000 s
b11000 t
1w
1T
#1628000
0w
0T
#1650000
b11010 q
b11010 v
b11001 W
b11001 m
b11001 s
b11001 t
1w
1T
#1672000
0w
0T
#1694000
b11011 q
b11011 v
b11010 W
b11010 m
b11010 s
b11010 t
1w
1T
#1716000
0w
0T
#1738000
b11100 q
b11100 v
b11011 W
b11011 m
b11011 s
b11011 t
1w
1T
#1760000
0w
0T
#1782000
b11101 q
b11101 v
b11100 W
b11100 m
b11100 s
b11100 t
1w
1T
#1804000
0w
0T
#1826000
b11110 q
b11110 v
b11101 W
b11101 m
b11101 s
b11101 t
1w
1T
#1848000
0w
0T
#1870000
b11111 q
b11111 v
b11110 W
b11110 m
b11110 s
b11110 t
1w
1T
#1892000
0w
0T
#1914000
b100000 q
b100000 v
b11111 W
b11111 m
b11111 s
b11111 t
1w
1T
#1936000
0w
0T
#1958000
b100001 q
b100001 v
b100000 W
b100000 m
b100000 s
b100000 t
1w
1T
#1980000
0w
0T
#2002000
b1 g
b1 l
b1 h
b1 k
b0 r
b0 u
1o
b100001 q
1`
0b
1a
b1 \
b10 [
b100001 v
b100001 W
b100001 m
b100001 s
b100001 t
b10 ^
1w
1T
#2024000
0w
0T
#2046000
b0 q
b10 g
0o
b0 v
b0 W
b0 m
b0 s
b0 t
b10 l
b1 X
b1 c
b1 i
b1 j
0a
b0 ]
1w
1T
#2068000
0w
0T
#2090000
b11 g
b0 S
b0 V
b0 Z
b11 l
b10 X
b10 c
b10 i
b10 j
b0 ]
1w
1T
#2112000
0w
0T
#2134000
b100 g
b100 l
b11 X
b11 c
b11 i
b11 j
1w
1T
#2156000
0w
0T
#2178000
b101 g
b101 l
b100 X
b100 c
b100 i
b100 j
1w
1T
#2200000
0w
0T
#2222000
b110 g
b110 l
b101 X
b101 c
b101 i
b101 j
1w
1T
#2244000
0w
0T
#2266000
b111 g
b111 l
b110 X
b110 c
b110 i
b110 j
1w
1T
#2288000
0w
0T
#2310000
b1000 g
b1000 l
b111 X
b111 c
b111 i
b111 j
1w
1T
#2332000
0w
0T
#2354000
b1001 g
b1001 l
b1000 X
b1000 c
b1000 i
b1000 j
1w
1T
#2376000
0w
0T
#2398000
b1010 g
b1010 l
b1001 X
b1001 c
b1001 i
b1001 j
1w
1T
#2420000
0w
0T
#2442000
b1011 g
b1011 l
b1010 X
b1010 c
b1010 i
b1010 j
1w
1T
#2464000
0w
0T
#2486000
b1100 g
b1100 l
b1011 X
b1011 c
b1011 i
b1011 j
1w
1T
#2508000
0w
0T
#2530000
b1101 g
b1101 l
b1100 X
b1100 c
b1100 i
b1100 j
1w
1T
#2552000
0w
0T
#2574000
b1110 g
b1110 l
b1101 X
b1101 c
b1101 i
b1101 j
1w
1T
#2596000
0w
0T
#2618000
b1111 g
b1111 l
b1110 X
b1110 c
b1110 i
b1110 j
1w
1T
#2640000
0w
0T
#2662000
b10000 g
b10000 l
b1111 X
b1111 c
b1111 i
b1111 j
1w
1T
#2684000
0w
0T
#2706000
b10001 g
b10001 l
b10000 X
b10000 c
b10000 i
b10000 j
1w
1T
#2728000
0w
0T
#2750000
b10010 g
b10010 l
b10001 X
b10001 c
b10001 i
b10001 j
1w
1T
#2772000
0w
0T
#2794000
b10011 g
b10011 l
b10010 X
b10010 c
b10010 i
b10010 j
1w
1T
#2816000
0w
0T
#2838000
b10100 g
b10100 l
b10011 X
b10011 c
b10011 i
b10011 j
1w
1T
#2860000
0w
0T
#2882000
b10101 g
b10101 l
b10100 X
b10100 c
b10100 i
b10100 j
1w
1T
#2904000
0w
0T
#2926000
b10110 g
b10110 l
b10101 X
b10101 c
b10101 i
b10101 j
1w
1T
#2948000
0w
0T
#2970000
b10111 g
b10111 l
b10110 X
b10110 c
b10110 i
b10110 j
1w
1T
#2992000
0w
0T
#3014000
b11000 g
b11000 l
b10111 X
b10111 c
b10111 i
b10111 j
1w
1T
#3036000
0w
0T
#3058000
b11001 g
b11001 l
b11000 X
b11000 c
b11000 i
b11000 j
1w
1T
#3080000
0w
0T
#3102000
b11010 g
b11010 l
b11001 X
b11001 c
b11001 i
b11001 j
1w
1T
#3124000
0w
0T
#3146000
b11011 g
b11011 l
b11010 X
b11010 c
b11010 i
b11010 j
1w
1T
#3168000
0w
0T
#3190000
b11100 g
b11100 l
b11011 X
b11011 c
b11011 i
b11011 j
1w
1T
#3212000
0w
0T
#3234000
b11101 g
b11101 l
b11100 X
b11100 c
b11100 i
b11100 j
1w
1T
#3256000
0w
0T
#3278000
b11110 g
b11110 l
b11101 X
b11101 c
b11101 i
b11101 j
1w
1T
#3300000
0w
0T
#3322000
b11111 g
b11111 l
b11110 X
b11110 c
b11110 i
b11110 j
1w
1T
#3344000
0w
0T
#3366000
b100000 g
b100000 l
b11111 X
b11111 c
b11111 i
b11111 j
1w
1T
#3388000
0w
0T
#3410000
b100001 g
b100001 l
b100000 X
b100000 c
b100000 i
b100000 j
1w
1T
#3432000
0w
0T
#3454000
b1 q
b1 v
b1 r
b1 u
b0 h
b0 k
1e
b100001 l
b100001 X
b100001 c
b100001 i
b100001 j
1b
0`
1_
b1 ^
1w
1T
#3476000
0w
0T
#3498000
b0 g
b10 q
b1 [
1_
b0 l
b0 X
b0 c
b0 i
b0 j
b10 v
b1 W
b1 m
b1 s
b1 t
b1 ^
1w
1T
#3520000
0w
0T
#3542000
b11 q
0e
b11 v
b10 W
b10 m
b10 s
b10 t
0_
b10101011011101010110010001 ]
1w
1T
#3564000
0w
0T
#3586000
b100 q
b10101011011101010110010001 S
b10101011011101010110010001 V
b10101011011101010110010001 Z
b100 v
b11 W
b11 m
b11 s
b11 t
b10101011011101010110010001 ]
1w
1T
#3608000
0w
0T
#3630000
b101 q
b101 v
b100 W
b100 m
b100 s
b100 t
1w
1T
#3652000
0w
0T
#3674000
b110 q
b110 v
b101 W
b101 m
b101 s
b101 t
1w
1T
#3696000
0w
0T
#3718000
b111 q
b111 v
b110 W
b110 m
b110 s
b110 t
1w
1T
#3740000
0w
0T
#3762000
b1000 q
b1000 v
b111 W
b111 m
b111 s
b111 t
1w
1T
#3784000
0w
0T
#3806000
b1001 q
b1001 v
b1000 W
b1000 m
b1000 s
b1000 t
1w
1T
#3828000
0w
0T
#3850000
b1010 q
b1010 v
b1001 W
b1001 m
b1001 s
b1001 t
1w
1T
#3872000
0w
0T
#3894000
b1011 q
b1011 v
b1010 W
b1010 m
b1010 s
b1010 t
1w
1T
#3916000
0w
0T
#3938000
b1100 q
b1100 v
b1011 W
b1011 m
b1011 s
b1011 t
1w
1T
#3960000
0w
0T
#3982000
b1101 q
b1101 v
b1100 W
b1100 m
b1100 s
b1100 t
1w
1T
#4004000
0w
0T
#4026000
b1110 q
b1110 v
b1101 W
b1101 m
b1101 s
b1101 t
1w
1T
#4048000
0w
0T
#4070000
b1111 q
b1111 v
b1110 W
b1110 m
b1110 s
b1110 t
1w
1T
#4092000
0w
0T
#4114000
b10000 q
b10000 v
b1111 W
b1111 m
b1111 s
b1111 t
1w
1T
#4136000
0w
0T
#4158000
b10001 q
b10001 v
b10000 W
b10000 m
b10000 s
b10000 t
1w
1T
#4180000
0w
0T
#4202000
b10010 q
b10010 v
b10001 W
b10001 m
b10001 s
b10001 t
1w
1T
#4224000
0w
0T
#4246000
b10011 q
b10011 v
b10010 W
b10010 m
b10010 s
b10010 t
1w
1T
#4268000
0w
0T
#4290000
b10100 q
b10100 v
b10011 W
b10011 m
b10011 s
b10011 t
1w
1T
#4312000
0w
0T
#4334000
b10101 q
b10101 v
b10100 W
b10100 m
b10100 s
b10100 t
1w
1T
#4356000
0w
0T
#4378000
b10110 q
b10110 v
b10101 W
b10101 m
b10101 s
b10101 t
1w
1T
#4400000
0w
0T
#4422000
b10111 q
b10111 v
b10110 W
b10110 m
b10110 s
b10110 t
1w
1T
#4444000
0w
0T
#4466000
b11000 q
b11000 v
b10111 W
b10111 m
b10111 s
b10111 t
1w
1T
#4488000
0w
0T
#4510000
b11001 q
b11001 v
b11000 W
b11000 m
b11000 s
b11000 t
1w
1T
#4532000
0w
0T
#4554000
b11010 q
b11010 v
b11001 W
b11001 m
b11001 s
b11001 t
1w
1T
#4576000
0w
0T
#4598000
b11011 q
b11011 v
b11010 W
b11010 m
b11010 s
b11010 t
1w
1T
#4620000
0w
0T
#4642000
b11100 q
b11100 v
b11011 W
b11011 m
b11011 s
b11011 t
1w
1T
#4664000
0w
0T
#4686000
b11101 q
b11101 v
b11100 W
b11100 m
b11100 s
b11100 t
1w
1T
#4708000
0w
0T
#4730000
b11110 q
b11110 v
b11101 W
b11101 m
b11101 s
b11101 t
1w
1T
#4752000
0w
0T
#4774000
b11111 q
b11111 v
b11110 W
b11110 m
b11110 s
b11110 t
1w
1T
#4796000
0w
0T
#4818000
b100000 q
b100000 v
b11111 W
b11111 m
b11111 s
b11111 t
1w
1T
#4840000
0w
0T
#4862000
b100001 q
b100001 v
b100000 W
b100000 m
b100000 s
b100000 t
1w
1T
#4884000
0w
0T
#4906000
b1 g
b1 l
b1 h
b1 k
b0 r
b0 u
1o
b100001 q
1`
0b
1a
b10 \
b10 [
b100001 v
b100001 W
b100001 m
b100001 s
b100001 t
b10 ^
1w
1T
#4928000
0w
0T
#4950000
b0 q
b10 g
0o
b0 v
b0 W
b0 m
b0 s
b0 t
b10 l
b1 X
b1 c
b1 i
b1 j
0a
b0 ]
1w
1T
#4972000
0w
0T
#4994000
b11 g
b0 S
b0 V
b0 Z
b11 l
b10 X
b10 c
b10 i
b10 j
b0 ]
1w
1T
#5016000
0w
0T
#5038000
b100 g
b100 l
b11 X
b11 c
b11 i
b11 j
1w
1T
#5060000
0w
0T
#5082000
b101 g
b101 l
b100 X
b100 c
b100 i
b100 j
1w
1T
#5104000
0w
0T
#5126000
b110 g
b110 l
b101 X
b101 c
b101 i
b101 j
1w
1T
#5148000
0w
0T
#5170000
b111 g
b111 l
b110 X
b110 c
b110 i
b110 j
1w
1T
#5192000
0w
0T
#5214000
b1000 g
b1000 l
b111 X
b111 c
b111 i
b111 j
1w
1T
#5236000
0w
0T
#5258000
b1001 g
b1001 l
b1000 X
b1000 c
b1000 i
b1000 j
1w
1T
#5280000
0w
0T
#5302000
b1010 g
b1010 l
b1001 X
b1001 c
b1001 i
b1001 j
1w
1T
#5324000
0w
0T
#5346000
b1011 g
b1011 l
b1010 X
b1010 c
b1010 i
b1010 j
1w
1T
#5368000
0w
0T
#5390000
b1100 g
b1100 l
b1011 X
b1011 c
b1011 i
b1011 j
1w
1T
#5412000
0w
0T
#5434000
b1101 g
b1101 l
b1100 X
b1100 c
b1100 i
b1100 j
1w
1T
#5456000
0w
0T
#5478000
b1110 g
b1110 l
b1101 X
b1101 c
b1101 i
b1101 j
1w
1T
#5500000
0w
0T
#5522000
b1111 g
b1111 l
b1110 X
b1110 c
b1110 i
b1110 j
1w
1T
#5544000
0w
0T
#5566000
b10000 g
b10000 l
b1111 X
b1111 c
b1111 i
b1111 j
1w
1T
#5588000
0w
0T
#5610000
b10001 g
b10001 l
b10000 X
b10000 c
b10000 i
b10000 j
1w
1T
#5632000
0w
0T
#5654000
b10010 g
b10010 l
b10001 X
b10001 c
b10001 i
b10001 j
1w
1T
#5676000
0w
0T
#5698000
b10011 g
b10011 l
b10010 X
b10010 c
b10010 i
b10010 j
1w
1T
#5720000
0w
0T
#5742000
b10100 g
b10100 l
b10011 X
b10011 c
b10011 i
b10011 j
1w
1T
#5764000
0w
0T
#5786000
b10101 g
b10101 l
b10100 X
b10100 c
b10100 i
b10100 j
1w
1T
#5808000
0w
0T
#5830000
b10110 g
b10110 l
b10101 X
b10101 c
b10101 i
b10101 j
1w
1T
#5852000
0w
0T
#5874000
b10111 g
b10111 l
b10110 X
b10110 c
b10110 i
b10110 j
1w
1T
#5896000
0w
0T
#5918000
b11000 g
b11000 l
b10111 X
b10111 c
b10111 i
b10111 j
1w
1T
#5940000
0w
0T
#5962000
b11001 g
b11001 l
b11000 X
b11000 c
b11000 i
b11000 j
1w
1T
#5984000
0w
0T
#6006000
b11010 g
b11010 l
b11001 X
b11001 c
b11001 i
b11001 j
1w
1T
#6028000
0w
0T
#6050000
b11011 g
b11011 l
b11010 X
b11010 c
b11010 i
b11010 j
1w
1T
#6072000
0w
0T
#6094000
b11100 g
b11100 l
b11011 X
b11011 c
b11011 i
b11011 j
1w
1T
#6116000
0w
0T
#6138000
b11101 g
b11101 l
b11100 X
b11100 c
b11100 i
b11100 j
1w
1T
#6160000
0w
0T
#6182000
b11110 g
b11110 l
b11101 X
b11101 c
b11101 i
b11101 j
1w
1T
#6204000
0w
0T
#6226000
b11111 g
b11111 l
b11110 X
b11110 c
b11110 i
b11110 j
1w
1T
#6248000
0w
0T
#6270000
b100000 g
b100000 l
b11111 X
b11111 c
b11111 i
b11111 j
1w
1T
#6292000
0w
0T
#6314000
b100001 g
b100001 l
b100000 X
b100000 c
b100000 i
b100000 j
1w
1T
#6336000
0w
0T
#6358000
b1 q
b1 v
b1 r
b1 u
b0 h
b0 k
1e
b100001 l
b100001 X
b100001 c
b100001 i
b100001 j
1b
0`
1_
b1 ^
1w
1T
#6380000
0w
0T
#6402000
b0 g
b10 q
b1 [
1_
b0 l
b0 X
b0 c
b0 i
b0 j
b10 v
b1 W
b1 m
b1 s
b1 t
b1 ^
1w
1T
#6424000
0w
0T
#6446000
b11 q
0e
b11 v
b10 W
b10 m
b10 s
b10 t
0_
b10010000001011011110000000 ]
1w
1T
#6468000
0w
0T
#6490000
b100 q
b10010000001011011110000000 S
b10010000001011011110000000 V
b10010000001011011110000000 Z
b100 v
b11 W
b11 m
b11 s
b11 t
b10010000001011011110000000 ]
1w
1T
#6512000
0w
0T
#6534000
b101 q
b101 v
b100 W
b100 m
b100 s
b100 t
1w
1T
#6556000
0w
0T
#6578000
b110 q
b110 v
b101 W
b101 m
b101 s
b101 t
1w
1T
#6600000
0w
0T
#6622000
b111 q
b111 v
b110 W
b110 m
b110 s
b110 t
1w
1T
#6644000
0w
0T
#6666000
b1000 q
b1000 v
b111 W
b111 m
b111 s
b111 t
1w
1T
#6688000
0w
0T
#6710000
b1001 q
b1001 v
b1000 W
b1000 m
b1000 s
b1000 t
1w
1T
#6732000
0w
0T
#6754000
b1010 q
b1010 v
b1001 W
b1001 m
b1001 s
b1001 t
1w
1T
#6776000
0w
0T
#6798000
b1011 q
b1011 v
b1010 W
b1010 m
b1010 s
b1010 t
1w
1T
#6820000
0w
0T
#6842000
b1100 q
b1100 v
b1011 W
b1011 m
b1011 s
b1011 t
1w
1T
#6864000
0w
0T
#6886000
b1101 q
b1101 v
b1100 W
b1100 m
b1100 s
b1100 t
1w
1T
#6908000
0w
0T
#6930000
b1110 q
b1110 v
b1101 W
b1101 m
b1101 s
b1101 t
1w
1T
#6952000
0w
0T
#6974000
b1111 q
b1111 v
b1110 W
b1110 m
b1110 s
b1110 t
1w
1T
#6996000
0w
0T
#7018000
b10000 q
b10000 v
b1111 W
b1111 m
b1111 s
b1111 t
1w
1T
#7040000
0w
0T
#7062000
b10001 q
b10001 v
b10000 W
b10000 m
b10000 s
b10000 t
1w
1T
#7084000
0w
0T
#7106000
b10010 q
b10010 v
b10001 W
b10001 m
b10001 s
b10001 t
1w
1T
#7128000
0w
0T
#7150000
b10011 q
b10011 v
b10010 W
b10010 m
b10010 s
b10010 t
1w
1T
#7172000
0w
0T
#7194000
b10100 q
b10100 v
b10011 W
b10011 m
b10011 s
b10011 t
1w
1T
#7216000
0w
0T
#7238000
b10101 q
b10101 v
b10100 W
b10100 m
b10100 s
b10100 t
1w
1T
#7260000
0w
0T
#7282000
b10110 q
b10110 v
b10101 W
b10101 m
b10101 s
b10101 t
1w
1T
#7304000
0w
0T
#7326000
b10111 q
b10111 v
b10110 W
b10110 m
b10110 s
b10110 t
1w
1T
#7348000
0w
0T
#7370000
b11000 q
b11000 v
b10111 W
b10111 m
b10111 s
b10111 t
1w
1T
#7392000
0w
0T
#7414000
b11001 q
b11001 v
b11000 W
b11000 m
b11000 s
b11000 t
1w
1T
#7436000
0w
0T
#7458000
b11010 q
b11010 v
b11001 W
b11001 m
b11001 s
b11001 t
1w
1T
#7480000
0w
0T
#7502000
b11011 q
b11011 v
b11010 W
b11010 m
b11010 s
b11010 t
1w
1T
#7524000
0w
0T
#7546000
b11100 q
b11100 v
b11011 W
b11011 m
b11011 s
b11011 t
1w
1T
#7568000
0w
0T
#7590000
b11101 q
b11101 v
b11100 W
b11100 m
b11100 s
b11100 t
1w
1T
#7612000
0w
0T
#7634000
b11110 q
b11110 v
b11101 W
b11101 m
b11101 s
b11101 t
1w
1T
#7656000
0w
0T
#7678000
b11111 q
b11111 v
b11110 W
b11110 m
b11110 s
b11110 t
1w
1T
#7700000
0w
0T
#7722000
b100000 q
b100000 v
b11111 W
b11111 m
b11111 s
b11111 t
1w
1T
#7744000
0w
0T
#7766000
b100001 q
b100001 v
b100000 W
b100000 m
b100000 s
b100000 t
1w
1T
#7788000
0w
0T
#7810000
b1 g
b1 l
b1 h
b1 k
b0 r
b0 u
1o
b100001 q
1`
0b
1a
b11 \
b10 [
b100001 v
b100001 W
b100001 m
b100001 s
b100001 t
b10 ^
1w
1T
#7832000
0w
0T
#7854000
b0 q
b10 g
0o
b0 v
b0 W
b0 m
b0 s
b0 t
b10 l
b1 X
b1 c
b1 i
b1 j
0a
b0 ]
1w
1T
#7876000
0w
0T
#7898000
b11 g
b0 S
b0 V
b0 Z
b11 l
b10 X
b10 c
b10 i
b10 j
b0 ]
1w
1T
#7920000
0w
0T
#7942000
b100 g
b100 l
b11 X
b11 c
b11 i
b11 j
1w
1T
#7964000
0w
0T
#7986000
b101 g
b101 l
b100 X
b100 c
b100 i
b100 j
1w
1T
#8008000
0w
0T
#8030000
b110 g
b110 l
b101 X
b101 c
b101 i
b101 j
1w
1T
#8052000
0w
0T
#8074000
b111 g
b111 l
b110 X
b110 c
b110 i
b110 j
1w
1T
#8096000
0w
0T
#8118000
b1000 g
b1000 l
b111 X
b111 c
b111 i
b111 j
1w
1T
#8140000
0w
0T
#8162000
b1001 g
b1001 l
b1000 X
b1000 c
b1000 i
b1000 j
1w
1T
#8184000
0w
0T
#8206000
b1010 g
b1010 l
b1001 X
b1001 c
b1001 i
b1001 j
1w
1T
#8228000
0w
0T
#8250000
b1011 g
b1011 l
b1010 X
b1010 c
b1010 i
b1010 j
1w
1T
#8272000
0w
0T
#8294000
b1100 g
b1100 l
b1011 X
b1011 c
b1011 i
b1011 j
1w
1T
#8316000
0w
0T
