Final-Project/Game_dev/iverilog.vcd
$date
	Mon Mar 20 02:49:47 2023
$end
$version
	Icarus Verilog
$end
$timescale
	1ps
$end
$scope module axis_i2s2 $end
$var wire 1 ! axis_clk $end
$var wire 1 " axis_resetn $end
$var wire 1 # mclk $end
$var wire 1 $ rx_axis_p_ready $end
$var wire 1 % rx_lrck $end
$var wire 1 & rx_mclk $end
$var wire 1 ' rx_sclk $end
$var wire 1 ( rx_sdin $end
$var wire 32 ) tx_axis_c_data [31:0] $end
$var wire 1 * tx_axis_c_last $end
$var wire 1 + tx_axis_c_valid $end
$var wire 1 , tx_lrck $end
$var wire 1 - tx_mclk $end
$var wire 1 . tx_sclk $end
$var wire 1 / sclk $end
$var wire 32 0 rx_axis_p_data [31:0] $end
$var wire 1 1 lrck $end
$var wire 1 2 din_sync $end
$var reg 9 3 count [8:0] $end
$var reg 3 4 din_sync_shift [2:0] $end
$var reg 1 5 rx_axis_p_last $end
$var reg 1 6 rx_axis_p_valid $end
$var reg 32 7 rx_data_l [31:0] $end
$var reg 24 8 rx_data_l_shift [23:0] $end
$var reg 32 9 rx_data_r [31:0] $end
$var reg 24 : rx_data_r_shift [23:0] $end
$var reg 1 ; tx_axis_c_ready $end
$var reg 32 < tx_data_l [31:0] $end
$var reg 24 = tx_data_l_shift [23:0] $end
$var reg 32 > tx_data_r [31:0] $end
$var reg 24 ? tx_data_r_shift [23:0] $end
$var reg 1 @ tx_sdout $end
$upscope $end
$scope module dff $end
$var wire 1 A clk_i $end
$var wire 1 B d_i $end
$var wire 1 C q_o $end
$var wire 1 D reset_i $end
$var reg 1 E q_r $end
$upscope $end
$scope module inv $end
$var wire 1 F a_i $end
$var wire 1 G b_o $end
$upscope $end
$scope module lfsr $end
$var wire 1 H clk_i $end
$var wire 5 I data_o [4:0] $end
$var wire 1 J reset_i $end
$var reg 5 K dff_l [4:0] $end
$scope begin genblk1[1] $end
$upscope $end
$scope begin genblk1[2] $end
$upscope $end
$scope begin genblk1[3] $end
$upscope $end
$scope begin genblk1[4] $end
$upscope $end
$upscope $end
$scope module sine $end
$var wire 1 L axis_last $end
$var wire 1 M clk_i $end
$var wire 32 N frequency_step [31:0] $end
$var wire 1 O ready_i $end
$var wire 1 P reset_i $end
$var wire 24 Q sine_o [23:0] $end
$var wire 1 R valid_o $end
$var reg 1 S axis_last_l $end
$var reg 6 T index [5:0] $end
$var reg 32 U phase_l [31:0] $end
$var reg 2 V pipeline [1:0] $end
$var reg 24 W sine_val [23:0] $end
$var reg 24 X tblval [23:0] $end
$var reg 1 Y valid_o_l $end
$upscope $end
$scope module testbench $end
$var wire 1 Z second $end
$var wire 1 [ reset_i $end
$var wire 32 \ fstep_o [31:0] $end
$var wire 1 ] clk_i $end
$var reg 1 ^ startbutton_i $end
$scope module cg $end
$var reg 1 ] clk_o $end
$upscope $end
$scope module dut $end
$var wire 1 ] clk_i $end
$var wire 32 _ fstep_o [31:0] $end
$var wire 1 Z second $end
$var wire 1 ^ startbutton_i $end
$var wire 1 [ reset_i $end
$var wire 25 ` playcounterout [24:0] $end
$var wire 25 a pausecounterout [24:0] $end
$var wire 1 b endofnotes $end
$var reg 32 c cfstep_l [31:0] $end
$var reg 2 d cstate_l [1:0] $end
$var reg 5 e ncounter [4:0] $end
$var reg 32 f nfstep_l [31:0] $end
$var reg 2 g nstate_l [1:0] $end
$var reg 1 h pausecounter_reset $end
$var reg 1 i pausecounterup $end
$var reg 1 j playcounter_reset $end
$var reg 1 k playcounterup $end
$scope module pausecounter_inst $end
$var wire 1 ] clk_i $end
$var wire 25 l counter_o [24:0] $end
$var wire 1 m down_i $end
$var wire 1 n reset_i $end
$var wire 1 i up_i $end
$var wire 1 o ofv $end
$var wire 25 p dffin_l [24:0] $end
$var reg 25 q addin_l [24:0] $end
$var reg 25 r dffout_l [24:0] $end
$scope begin genblk1[0] $end
$upscope $end
$scope begin genblk1[1] $end
$upscope $end
$scope begin genblk1[2] $end
$upscope $end
$scope begin genblk1[3] $end
$upscope $end
$scope begin genblk1[4] $end
$upscope $end
$scope begin genblk1[5] $end
$upscope $end
$scope begin genblk1[6] $end
$upscope $end
$scope begin genblk1[7] $end
$upscope $end
$scope begin genblk1[8] $end
$upscope $end
$scope begin genblk1[9] $end
$upscope $end
$scope begin genblk1[10] $end
$upscope $end
$scope begin genblk1[11] $end
$upscope $end
$scope begin genblk1[12] $end
$upscope $end
$scope begin genblk1[13] $end
$upscope $end
$scope begin genblk1[14] $end
$upscope $end
$scope begin genblk1[15] $end
$upscope $end
$scope begin genblk1[16] $end
$upscope $end
$scope begin genblk1[17] $end
$upscope $end
$scope begin genblk1[18] $end
$upscope $end
$scope begin genblk1[19] $end
$upscope $end
$scope begin genblk1[20] $end
$upscope $end
$scope begin genblk1[21] $end
$upscope $end
$scope begin genblk1[22] $end
$upscope $end
$scope begin genblk1[23] $end
$upscope $end
$scope begin genblk1[24] $end
$upscope $end
$scope module adder_inst $end
$var wire 25 s a_i [24:0] $end
$var wire 25 t b_i [24:0] $end
$var wire 26 u sum_o [25:0] $end
$upscope $end
$upscope $end
$scope module playcounter_inst $end
$var wire 1 ] clk_i $end
$var wire 25 v counter_o [24:0] $end
$var wire 1 w down_i $end
$var wire 1 x reset_i $end
$var wire 1 k up_i $end
$var wire 1 y ofv $end
$var wire 25 z dffin_l [24:0] $end
$var reg 25 { addin_l [24:0] $end
$var reg 25 | dffout_l [24:0] $end
$scope begin genblk1[0] $end
$upscope $end
$scope begin genblk1[1] $end
$upscope $end
$scope begin genblk1[2] $end
$upscope $end
$scope begin genblk1[3] $end
$upscope $end
$scope begin genblk1[4] $end
$upscope $end
$scope begin genblk1[5] $end
$upscope $end
$scope begin genblk1[6] $end
$upscope $end
$scope begin genblk1[7] $end
$upscope $end
$scope begin genblk1[8] $end
$upscope $end
$scope begin genblk1[9] $end
$upscope $end
$scope begin genblk1[10] $end
$upscope $end
$scope begin genblk1[11] $end
$upscope $end
$scope begin genblk1[12] $end
$upscope $end
$scope begin genblk1[13] $end
$upscope $end
$scope begin genblk1[14] $end
$upscope $end
$scope begin genblk1[15] $end
$upscope $end
$scope begin genblk1[16] $end
$upscope $end
$scope begin genblk1[17] $end
$upscope $end
$scope begin genblk1[18] $end
$upscope $end
$scope begin genblk1[19] $end
$upscope $end
$scope begin genblk1[20] $end
$upscope $end
$scope begin genblk1[21] $end
$upscope $end
$scope begin genblk1[22] $end
$upscope $end
$scope begin genblk1[23] $end
$upscope $end
$scope begin genblk1[24] $end
$upscope $end
$scope module adder_inst $end
$var wire 25 } a_i [24:0] $end
$var wire 25 ~ b_i [24:0] $end
$var wire 26 !" sum_o [25:0] $end
$upscope $end
$upscope $end
$upscope $end
$scope module rg $end
$var wire 1 "" clk_i $end
$var wire 1 #" phase_lo_r $end
$var wire 1 $" phase_hi_r $end
$var wire 1 %" in_phase_2 $end
$var wire 1 &" in_phase_1 $end
$var wire 1 [ async_reset_o $end
$var reg 2 '" ctr_hi_r [1:0] $end
$var reg 2 (" ctr_lo_r [1:0] $end
$scope begin rof[0] $end
$upscope $end
$upscope $end
$upscope $end
$enddefinitions $end
#0
$dumpvars
b0 ("
b0 '"
0&"
0%"
0$"
0#"
0""
bx !"
b0 ~
bx }
bx |
b0 {
bx z
xy
xx
0w
bx v
bx u
b0 t
bx s
bx r
b0 q
bx p
xo
xn
0m
bx l
xk
xj
xi
xh
b0 g
bx f
bx e
b0 d
bx c
xb
bx a
bx `
bx _
0^
0]
bx \
0[
xZ
xY
bx X
bx W
bx V
b0 U
bx T
xS
xR
bx Q
zP
zO
bz N
zM
xL
bx K
zJ
bx I
zH
zG
zF
xE
zD
xC
zB
zA
x@
b0 ?
b0 >
b0 =
b0 <
0;
b0 :
b0 9
b0 8
b0 7
06
05
b0 4
b0 3
02
01
b0 0
0/
0.
z-
0,
z+
z*
bz )
z(
0'
z&
0%
z$
z#
z"
z!
$end
#22000
0n
0x
0b
b0 e
0i
0k
0h
0j
1""
1]
#44000
b1 ("
0""
0]
#66000
1""
1]
#88000
1n
1x
1[
1&"
1#"
b10 ("
0""
0]
#110000
0Z
b0 z
0y
b0 p
0o
b0 f
b0 !"
b0 `
b0 v
b0 |
b0 }
b0 u
b0 a
b0 l
b0 r
b0 s
b0 \
b0 _
b0 c
1""
1]
#132000
b1 '"
0""
0]
#154000
1""
1]
#176000
0n
0x
0[
1%"
1$"
b10 '"
0""
0]
#198000
1""
1]
#220000
0""
0]
#242000
1""
1]
#264000
0""
0]
#286000
1""
1]
#308000
0""
0]
#330000
1""
1]
#352000
0""
0]
#374000
1""
1]
#396000
0""
0]
#418000
1""
1]
#440000
0""
0]
#462000
1""
1]
#484000
0""
0]
#500000
b1 g
1^
#506000
b10010000001011011110000000 f
b1 d
1""
1]
#528000
0""
0]
#550000
b1 z
b1 !"
b1 {
b1 ~
1k
b10010000001011011110000000 \
b10010000001011011110000000 _
b10010000001011011110000000 c
1""
1]
#572000
0""
0]
#594000
b10 z
b10 !"
b1 `
b1 v
b1 |
b1 }
1""
1]
#600000
0^
#616000
0""
0]
#638000
b11 z
b11 !"
b10 `
b10 v
b10 |
b10 }
1""
1]
#660000
0""
0]
#682000
b100 z
b100 !"
b11 `
b11 v
b11 |
b11 }
1""
1]
#704000
0""
0]
#726000
b101 z
b101 !"
b100 `
b100 v
b100 |
b100 }
1""
1]
#748000
0""
0]
#770000
b110 z
b110 !"
b101 `
b101 v
b101 |
b101 }
1""
1]
#792000
0""
0]
#814000
b111 z
b111 !"
b110 `
b110 v
b110 |
b110 }
1""
1]
#836000
0""
0]
#858000
b1000 z
b1000 !"
b111 `
b111 v
b111 |
b111 }
1""
1]
#880000
0""
0]
#902000
b1001 z
b1001 !"
b1000 `
b1000 v
b1000 |
b1000 }
1""
1]
#924000
0""
0]
#946000
b1010 z
b1010 !"
b1001 `
b1001 v
b1001 |
b1001 }
1""
1]
#968000
0""
0]
#990000
b1011 z
b1011 !"
b1010 `
b1010 v
b1010 |
b1010 }
1""
1]
#1012000
0""
0]
#1034000
b1100 z
b1100 !"
b1011 `
b1011 v
b1011 |
b1011 }
1""
1]
#1056000
0""
0]
#1078000
b1101 z
b1101 !"
b1100 `
b1100 v
b1100 |
b1100 }
1""
1]
#1100000
0""
0]
#1122000
b1110 z
b1110 !"
b1101 `
b1101 v
b1101 |
b1101 }
1""
1]
#1144000
0""
0]
#1166000
b1111 z
b1111 !"
b1110 `
b1110 v
b1110 |
b1110 }
1""
1]
#1188000
0""
0]
#1210000
b10000 z
b10000 !"
b1111 `
b1111 v
b1111 |
b1111 }
1""
1]
#1232000
0""
0]
#1254000
b10001 z
b10001 !"
b10000 `
b10000 v
b10000 |
b10000 }
1""
1]
#1276000
0""
0]
#1298000
b10010 z
b10010 !"
b10001 `
b10001 v
b10001 |
b10001 }
1""
1]
#1320000
0""
0]
#1342000
b10011 z
b10011 !"
b10010 `
b10010 v
b10010 |
b10010 }
1""
1]
#1364000
0""
0]
#1386000
b10100 z
b10100 !"
b10011 `
b10011 v
b10011 |
b10011 }
1""
1]
#1408000
0""
0]
#1430000
b10101 z
b10101 !"
b10100 `
b10100 v
b10100 |
b10100 }
1""
1]
#1452000
0""
0]
#1474000
b10110 z
b10110 !"
b10101 `
b10101 v
b10101 |
b10101 }
1""
1]
#1496000
0""
0]
#1518000
b10111 z
b10111 !"
b10110 `
b10110 v
b10110 |
b10110 }
1""
1]
#1540000
0""
0]
#1562000
b11000 z
b11000 !"
b10111 `
b10111 v
b10111 |
b10111 }
1""
1]
#1584000
0""
0]
#1606000
b11001 z
b11001 !"
b11000 `
b11000 v
b11000 |
b11000 }
1""
1]
#1628000
0""
0]
#1650000
b11010 z
b11010 !"
b11001 `
b11001 v
b11001 |
b11001 }
1""
1]
#1672000
0""
0]
#1694000
b11011 z
b11011 !"
b11010 `
b11010 v
b11010 |
b11010 }
1""
1]
#1716000
0""
0]
#1738000
b11100 z
b11100 !"
b11011 `
b11011 v
b11011 |
b11011 }
1""
1]
#1760000
0""
0]
#1782000
b11101 z
b11101 !"
b11100 `
b11100 v
b11100 |
b11100 }
1""
1]
#1804000
0""
0]
#1826000
b11110 z
b11110 !"
b11101 `
b11101 v
b11101 |
b11101 }
1""
1]
#1848000
0""
0]
#1870000
b11111 z
b11111 !"
b11110 `
b11110 v
b11110 |
b11110 }
1""
1]
#1892000
0""
0]
#1914000
b100000 z
b100000 !"
b11111 `
b11111 v
b11111 |
b11111 }
1""
1]
#1936000
0""
0]
#1958000
b100001 z
b10 g
b100001 !"
b100000 `
b100000 v
b100000 |
b100000 }
1""
1]
#1980000
0""
0]
#2002000
b1 p
1x
b0 {
b0 ~
b1 u
b1 q
b1 t
b0 f
1i
0k
1j
b1 e
b10 d
b100001 !"
b100001 `
b100001 v
b100001 |
b100001 }
1""
1]
#2024000
0""
0]
#2046000
b0 z
b10 p
0x
b0 !"
b0 `
b0 v
b0 |
b0 }
b10 u
b1 a
b1 l
b1 r
b1 s
b0 \
b0 _
b0 c
0j
1""
1]
#2068000
0""
0]
#2090000
b11 p
b11 u
b10 a
b10 l
b10 r
b10 s
1""
1]
#2112000
0""
0]
#2134000
b100 p
b100 u
b11 a
b11 l
b11 r
b11 s
1""
1]
#2156000
0""
0]
#2178000
b101 p
b101 u
b100 a
b100 l
b100 r
b100 s
1""
1]
#2200000
0""
0]
#2222000
b110 p
b110 u
b101 a
b101 l
b101 r
b101 s
1""
1]
#2244000
0""
0]
#2266000
b111 p
b111 u
b110 a
b110 l
b110 r
b110 s
1""
1]
#2288000
0""
0]
#2310000
b1000 p
b1000 u
b111 a
b111 l
b111 r
b111 s
1""
1]
#2332000
0""
0]
#2354000
b1001 p
b1001 u
b1000 a
b1000 l
b1000 r
b1000 s
1""
1]
#2376000
0""
0]
#2398000
b1010 p
b1010 u
b1001 a
b1001 l
b1001 r
b1001 s
1""
1]
#2420000
0""
0]
#2442000
b1011 p
b1011 u
b1010 a
b1010 l
b1010 r
b1010 s
1""
1]
#2464000
0""
0]
#2486000
b1100 p
b1100 u
b1011 a
b1011 l
b1011 r
b1011 s
1""
1]
#2508000
0""
0]
#2530000
b1101 p
b1101 u
b1100 a
b1100 l
b1100 r
b1100 s
1""
1]
#2552000
0""
0]
#2574000
b1110 p
b1110 u
b1101 a
b1101 l
b1101 r
b1101 s
1""
1]
#2596000
0""
0]
#2618000
b1111 p
b1111 u
b1110 a
b1110 l
b1110 r
b1110 s
1""
1]
#2640000
0""
0]
#2662000
b10000 p
b10000 u
b1111 a
b1111 l
b1111 r
b1111 s
1""
1]
#2684000
0""
0]
#2706000
b10001 p
b10001 u
b10000 a
b10000 l
b10000 r
b10000 s
1""
1]
#2728000
0""
0]
#2750000
b10010 p
b10010 u
b10001 a
b10001 l
b10001 r
b10001 s
1""
1]
#2772000
0""
0]
#2794000
b10011 p
b10011 u
b10010 a
b10010 l
b10010 r
b10010 s
1""
1]
#2816000
0""
0]
#2838000
b10100 p
b10100 u
b10011 a
b10011 l
b10011 r
b10011 s
1""
1]
#2860000
0""
0]
#2882000
b10101 p
b10101 u
b10100 a
b10100 l
b10100 r
b10100 s
1""
1]
#2904000
0""
0]
#2926000
b10110 p
b10110 u
b10101 a
b10101 l
b10101 r
b10101 s
1""
1]
#2948000
0""
0]
#2970000
b10111 p
b10111 u
b10110 a
b10110 l
b10110 r
b10110 s
1""
1]
#2992000
0""
0]
#3014000
b11000 p
b11000 u
b10111 a
b10111 l
b10111 r
b10111 s
1""
1]
#3036000
0""
0]
#3058000
b11001 p
b11001 u
b11000 a
b11000 l
b11000 r
b11000 s
1""
1]
#3080000
0""
0]
#3102000
b11010 p
b11010 u
b11001 a
b11001 l
b11001 r
b11001 s
1""
1]
#3124000
0""
0]
#3146000
b11011 p
b11011 u
b11010 a
b11010 l
b11010 r
b11010 s
1""
1]
#3168000
0""
0]
#3190000
b11100 p
b11100 u
b11011 a
b11011 l
b11011 r
b11011 s
1""
1]
#3212000
0""
0]
#3234000
b11101 p
b11101 u
b11100 a
b11100 l
b11100 r
b11100 s
1""
1]
#3256000
0""
0]
#3278000
b11110 p
b11110 u
b11101 a
b11101 l
b11101 r
b11101 s
1""
1]
#3300000
0""
0]
#3322000
b11111 p
b11111 u
b11110 a
b11110 l
b11110 r
b11110 s
1""
1]
#3344000
0""
0]
#3366000
b100000 p
b100000 u
b11111 a
b11111 l
b11111 r
b11111 s
1""
1]
#3388000
0""
0]
#3410000
b100001 p
b1 g
b100001 u
b100000 a
b100000 l
b100000 r
b100000 s
1""
1]
#3432000
0""
0]
#3454000
b1 z
1n
b1 !"
b1 {
b1 ~
b0 q
b0 t
b10101011011101010110010001 f
b100001 u
b100001 a
b100001 l
b100001 r
b100001 s
1k
0i
1h
b1 d
1""
1]
#3476000
0""
0]
#3498000
0n
b0 p
b10 z
b10101011011101010110010001 \
b10101011011101010110010001 _
b10101011011101010110010001 c
0h
b0 u
b0 a
b0 l
b0 r
b0 s
b10 !"
b1 `
b1 v
b1 |
b1 }
1""
1]
#3520000
0""
0]
#3542000
b11 z
b11 !"
b10 `
b10 v
b10 |
b10 }
1""
1]
#3564000
0""
0]
#3586000
b100 z
b100 !"
b11 `
b11 v
b11 |
b11 }
1""
1]
#3608000
0""
0]
#3630000
b101 z
b101 !"
b100 `
b100 v
b100 |
b100 }
1""
1]
#3652000
0""
0]
#3674000
b110 z
b110 !"
b101 `
b101 v
b101 |
b101 }
1""
1]
#3696000
0""
0]
#3718000
b111 z
b111 !"
b110 `
b110 v
b110 |
b110 }
1""
1]
#3740000
0""
0]
#3762000
b1000 z
b1000 !"
b111 `
b111 v
b111 |
b111 }
1""
1]
#3784000
0""
0]
#3806000
b1001 z
b1001 !"
b1000 `
b1000 v
b1000 |
b1000 }
1""
1]
#3828000
0""
0]
#3850000
b1010 z
b1010 !"
b1001 `
b1001 v
b1001 |
b1001 }
1""
1]
#3872000
0""
0]
#3894000
b1011 z
b1011 !"
b1010 `
b1010 v
b1010 |
b1010 }
1""
1]
#3916000
0""
0]
#3938000
b1100 z
b1100 !"
b1011 `
b1011 v
b1011 |
b1011 }
1""
1]
#3960000
0""
0]
#3982000
b1101 z
b1101 !"
b1100 `
b1100 v
b1100 |
b1100 }
1""
1]
#4004000
0""
0]
#4026000
b1110 z
b1110 !"
b1101 `
b1101 v
b1101 |
b1101 }
1""
1]
#4048000
0""
0]
#4070000
b1111 z
b1111 !"
b1110 `
b1110 v
b1110 |
b1110 }
1""
1]
#4092000
0""
0]
#4114000
b10000 z
b10000 !"
b1111 `
b1111 v
b1111 |
b1111 }
1""
1]
#4136000
0""
0]
#4158000
b10001 z
b10001 !"
b10000 `
b10000 v
b10000 |
b10000 }
1""
1]
#4180000
0""
0]
#4202000
b10010 z
b10010 !"
b10001 `
b10001 v
b10001 |
b10001 }
1""
1]
#4224000
0""
0]
#4246000
b10011 z
b10011 !"
b10010 `
b10010 v
b10010 |
b10010 }
1""
1]
#4268000
0""
0]
#4290000
b10100 z
b10100 !"
b10011 `
b10011 v
b10011 |
b10011 }
1""
1]
#4312000
0""
0]
#4334000
b10101 z
b10101 !"
b10100 `
b10100 v
b10100 |
b10100 }
1""
1]
#4356000
0""
0]
#4378000
b10110 z
b10110 !"
b10101 `
b10101 v
b10101 |
b10101 }
1""
1]
#4400000
0""
0]
#4422000
b10111 z
b10111 !"
b10110 `
b10110 v
b10110 |
b10110 }
1""
1]
#4444000
0""
0]
#4466000
b11000 z
b11000 !"
b10111 `
b10111 v
b10111 |
b10111 }
1""
1]
#4488000
0""
0]
#4510000
b11001 z
b11001 !"
b11000 `
b11000 v
b11000 |
b11000 }
1""
1]
#4532000
0""
0]
#4554000
b11010 z
b11010 !"
b11001 `
b11001 v
b11001 |
b11001 }
1""
1]
#4576000
0""
0]
#4598000
b11011 z
b11011 !"
b11010 `
b11010 v
b11010 |
b11010 }
1""
1]
#4620000
0""
0]
#4642000
b11100 z
b11100 !"
b11011 `
b11011 v
b11011 |
b11011 }
1""
1]
#4664000
0""
0]
#4686000
b11101 z
b11101 !"
b11100 `
b11100 v
b11100 |
b11100 }
1""
1]
#4708000
0""
0]
#4730000
b11110 z
b11110 !"
b11101 `
b11101 v
b11101 |
b11101 }
1""
1]
#4752000
0""
0]
#4774000
b11111 z
b11111 !"
b11110 `
b11110 v
b11110 |
b11110 }
1""
1]
#4796000
0""
0]
#4818000
b100000 z
b100000 !"
b11111 `
b11111 v
b11111 |
b11111 }
1""
1]
#4840000
0""
0]
#4862000
b100001 z
b10 g
b100001 !"
b100000 `
b100000 v
b100000 |
b100000 }
1""
1]
#4884000
0""
0]
#4906000
b1 p
1x
b0 {
b0 ~
b1 u
b1 q
b1 t
b0 f
1i
0k
1j
b10 e
b10 d
b100001 !"
b100001 `
b100001 v
b100001 |
b100001 }
1""
1]
#4928000
0""
0]
#4950000
b0 z
b10 p
0x
b0 !"
b0 `
b0 v
b0 |
b0 }
b10 u
b1 a
b1 l
b1 r
b1 s
b0 \
b0 _
b0 c
0j
1""
1]
#4972000
0""
0]
#4994000
b11 p
b11 u
b10 a
b10 l
b10 r
b10 s
1""
1]
#5016000
0""
0]
#5038000
b100 p
b100 u
b11 a
b11 l
b11 r
b11 s
1""
1]
#5060000
0""
0]
#5082000
b101 p
b101 u
b100 a
b100 l
b100 r
b100 s
1""
1]
#5104000
0""
0]
#5126000
b110 p
b110 u
b101 a
b101 l
b101 r
b101 s
1""
1]
#5148000
0""
0]
#5170000
b111 p
b111 u
b110 a
b110 l
b110 r
b110 s
1""
1]
#5192000
0""
0]
#5214000
b1000 p
b1000 u
b111 a
b111 l
b111 r
b111 s
1""
1]
#5236000
0""
0]
#5258000
b1001 p
b1001 u
b1000 a
b1000 l
b1000 r
b1000 s
1""
1]
#5280000
0""
0]
#5302000
b1010 p
b1010 u
b1001 a
b1001 l
b1001 r
b1001 s
1""
1]
#5324000
0""
0]
#5346000
b1011 p
b1011 u
b1010 a
b1010 l
b1010 r
b1010 s
1""
1]
#5368000
0""
0]
#5390000
b1100 p
b1100 u
b1011 a
b1011 l
b1011 r
b1011 s
1""
1]
#5412000
0""
0]
#5434000
b1101 p
b1101 u
b1100 a
b1100 l
b1100 r
b1100 s
1""
1]
#5456000
0""
0]
#5478000
b1110 p
b1110 u
b1101 a
b1101 l
b1101 r
b1101 s
1""
1]
#5500000
0""
0]
#5522000
b1111 p
b1111 u
b1110 a
b1110 l
b1110 r
b1110 s
1""
1]
#5544000
0""
0]
#5566000
b10000 p
b10000 u
b1111 a
b1111 l
b1111 r
b1111 s
1""
1]
#5588000
0""
0]
#5610000
b10001 p
b10001 u
b10000 a
b10000 l
b10000 r
b10000 s
1""
1]
#5632000
0""
0]
#5654000
b10010 p
b10010 u
b10001 a
b10001 l
b10001 r
b10001 s
1""
1]
#5676000
0""
0]
#5698000
b10011 p
b10011 u
b10010 a
b10010 l
b10010 r
b10010 s
1""
1]
#5720000
0""
0]
#5742000
b10100 p
b10100 u
b10011 a
b10011 l
b10011 r
b10011 s
1""
1]
#5764000
0""
0]
#5786000
b10101 p
b10101 u
b10100 a
b10100 l
b10100 r
b10100 s
1""
1]
#5808000
0""
0]
#5830000
b10110 p
b10110 u
b10101 a
b10101 l
b10101 r
b10101 s
1""
1]
#5852000
0""
0]
#5874000
b10111 p
b10111 u
b10110 a
b10110 l
b10110 r
b10110 s
1""
1]
#5896000
0""
0]
#5918000
b11000 p
b11000 u
b10111 a
b10111 l
b10111 r
b10111 s
1""
1]
#5940000
0""
0]
#5962000
b11001 p
b11001 u
b11000 a
b11000 l
b11000 r
b11000 s
1""
1]
#5984000
0""
0]
#6006000
b11010 p
b11010 u
b11001 a
b11001 l
b11001 r
b11001 s
1""
1]
#6028000
0""
0]
#6050000
b11011 p
b11011 u
b11010 a
b11010 l
b11010 r
b11010 s
1""
1]
#6072000
0""
0]
#6094000
b11100 p
b11100 u
b11011 a
b11011 l
b11011 r
b11011 s
1""
1]
#6116000
0""
0]
#6138000
b11101 p
b11101 u
b11100 a
b11100 l
b11100 r
b11100 s
1""
1]
#6160000
0""
0]
#6182000
b11110 p
b11110 u
b11101 a
b11101 l
b11101 r
b11101 s
1""
1]
#6204000
0""
0]
#6226000
b11111 p
b11111 u
b11110 a
b11110 l
b11110 r
b11110 s
1""
1]
#6248000
0""
0]
#6270000
b100000 p
b100000 u
b11111 a
b11111 l
b11111 r
b11111 s
1""
1]
#6292000
0""
0]
#6314000
b100001 p
b1 g
b100001 u
b100000 a
b100000 l
b100000 r
b100000 s
1""
1]
#6336000
0""
0]
#6358000
b1 z
1n
b1 !"
b1 {
b1 ~
b0 q
b0 t
b10010000001011011110000000 f
b100001 u
b100001 a
b100001 l
b100001 r
b100001 s
1k
0i
1h
b1 d
1""
1]
#6380000
0""
0]
#6402000
0n
b0 p
b10 z
b10010000001011011110000000 \
b10010000001011011110000000 _
b10010000001011011110000000 c
0h
b0 u
b0 a
b0 l
b0 r
b0 s
b10 !"
b1 `
b1 v
b1 |
b1 }
1""
1]
#6424000
0""
0]
#6446000
b11 z
b11 !"
b10 `
b10 v
b10 |
b10 }
1""
1]
#6468000
0""
0]
#6490000
b100 z
b100 !"
b11 `
b11 v
b11 |
b11 }
1""
1]
#6512000
0""
0]
#6534000
b101 z
b101 !"
b100 `
b100 v
b100 |
b100 }
1""
1]
#6556000
0""
0]
#6578000
b110 z
b110 !"
b101 `
b101 v
b101 |
b101 }
1""
1]
#6600000
0""
0]
#6622000
b111 z
b111 !"
b110 `
b110 v
b110 |
b110 }
1""
1]
#6644000
0""
0]
#6666000
b1000 z
b1000 !"
b111 `
b111 v
b111 |
b111 }
1""
1]
#6688000
0""
0]
#6710000
b1001 z
b1001 !"
b1000 `
b1000 v
b1000 |
b1000 }
1""
1]
#6732000
0""
0]
#6754000
b1010 z
b1010 !"
b1001 `
b1001 v
b1001 |
b1001 }
1""
1]
#6776000
0""
0]
#6798000
b1011 z
b1011 !"
b1010 `
b1010 v
b1010 |
b1010 }
1""
1]
#6820000
0""
0]
#6842000
b1100 z
b1100 !"
b1011 `
b1011 v
b1011 |
b1011 }
1""
1]
#6864000
0""
0]
#6886000
b1101 z
b1101 !"
b1100 `
b1100 v
b1100 |
b1100 }
1""
1]
#6908000
0""
0]
#6930000
b1110 z
b1110 !"
b1101 `
b1101 v
b1101 |
b1101 }
1""
1]
#6952000
0""
0]
#6974000
b1111 z
b1111 !"
b1110 `
b1110 v
b1110 |
b1110 }
1""
1]
#6996000
0""
0]
#7018000
b10000 z
b10000 !"
b1111 `
b1111 v
b1111 |
b1111 }
1""
1]
#7040000
0""
0]
#7062000
b10001 z
b10001 !"
b10000 `
b10000 v
b10000 |
b10000 }
1""
1]
#7084000
0""
0]
#7106000
b10010 z
b10010 !"
b10001 `
b10001 v
b10001 |
b10001 }
1""
1]
#7128000
0""
0]
#7150000
b10011 z
b10011 !"
b10010 `
b10010 v
b10010 |
b10010 }
1""
1]
#7172000
0""
0]
#7194000
b10100 z
b10100 !"
b10011 `
b10011 v
b10011 |
b10011 }
1""
1]
#7216000
0""
0]
#7238000
b10101 z
b10101 !"
b10100 `
b10100 v
b10100 |
b10100 }
1""
1]
#7260000
0""
0]
#7282000
b10110 z
b10110 !"
b10101 `
b10101 v
b10101 |
b10101 }
1""
1]
#7304000
0""
0]
#7326000
b10111 z
b10111 !"
b10110 `
b10110 v
b10110 |
b10110 }
1""
1]
#7348000
0""
0]
#7370000
b11000 z
b11000 !"
b10111 `
b10111 v
b10111 |
b10111 }
1""
1]
#7392000
0""
0]
#7414000
b11001 z
b11001 !"
b11000 `
b11000 v
b11000 |
b11000 }
1""
1]
#7436000
0""
0]
#7458000
b11010 z
b11010 !"
b11001 `
b11001 v
b11001 |
b11001 }
1""
1]
#7480000
0""
0]
#7502000
b11011 z
b11011 !"
b11010 `
b11010 v
b11010 |
b11010 }
1""
1]
#7524000
0""
0]
#7546000
b11100 z
b11100 !"
b11011 `
b11011 v
b11011 |
b11011 }
1""
1]
#7568000
0""
0]
#7590000
b11101 z
b11101 !"
b11100 `
b11100 v
b11100 |
b11100 }
1""
1]
#7612000
0""
0]
#7634000
b11110 z
b11110 !"
b11101 `
b11101 v
b11101 |
b11101 }
1""
1]
#7656000
0""
0]
#7678000
b11111 z
b11111 !"
b11110 `
b11110 v
b11110 |
b11110 }
1""
1]
#7700000
0""
0]
#7722000
b100000 z
b100000 !"
b11111 `
b11111 v
b11111 |
b11111 }
1""
1]
#7744000
0""
0]
#7766000
b100001 z
b10 g
b100001 !"
b100000 `
b100000 v
b100000 |
b100000 }
1""
1]
#7788000
0""
0]
#7810000
b1 p
1x
b0 {
b0 ~
b1 u
b1 q
b1 t
b0 f
1i
0k
1j
b11 e
b10 d
b100001 !"
b100001 `
b100001 v
b100001 |
b100001 }
1""
1]
#7832000
0""
0]
#7854000
b0 z
b10 p
0x
b0 !"
b0 `
b0 v
b0 |
b0 }
b10 u
b1 a
b1 l
b1 r
b1 s
b0 \
b0 _
b0 c
0j
1""
1]
#7876000
0""
0]
#7898000
b11 p
b11 u
b10 a
b10 l
b10 r
b10 s
1""
1]
#7920000
0""
0]
#7942000
b100 p
b100 u
b11 a
b11 l
b11 r
b11 s
1""
1]
#7964000
0""
0]
#7986000
b101 p
b101 u
b100 a
b100 l
b100 r
b100 s
1""
1]
#8008000
0""
0]
#8030000
b110 p
b110 u
b101 a
b101 l
b101 r
b101 s
1""
1]
#8052000
0""
0]
#8074000
b111 p
b111 u
b110 a
b110 l
b110 r
b110 s
1""
1]
#8096000
0""
0]
#8118000
b1000 p
b1000 u
b111 a
b111 l
b111 r
b111 s
1""
1]
#8140000
0""
0]
#8162000
b1001 p
b1001 u
b1000 a
b1000 l
b1000 r
b1000 s
1""
1]
