Final-Project/Game_dev/iverilog.vcd
$date
	Sun Mar 19 19:33:13 2023
$end
$version
	Icarus Verilog
$end
$timescale
	1ps
$end
$scope module axis_i2s2 $end
$var wire 1 ! axis_clk $end
$var wire 1 " axis_resetn $end
$var wire 1 # mclk $end
$var wire 1 $ rx_axis_p_ready $end
$var wire 1 % rx_lrck $end
$var wire 1 & rx_mclk $end
$var wire 1 ' rx_sclk $end
$var wire 1 ( rx_sdin $end
$var wire 32 ) tx_axis_c_data [31:0] $end
$var wire 1 * tx_axis_c_last $end
$var wire 1 + tx_axis_c_valid $end
$var wire 1 , tx_lrck $end
$var wire 1 - tx_mclk $end
$var wire 1 . tx_sclk $end
$var wire 1 / sclk $end
$var wire 32 0 rx_axis_p_data [31:0] $end
$var wire 1 1 lrck $end
$var wire 1 2 din_sync $end
$var reg 9 3 count [8:0] $end
$var reg 3 4 din_sync_shift [2:0] $end
$var reg 1 5 rx_axis_p_last $end
$var reg 1 6 rx_axis_p_valid $end
$var reg 32 7 rx_data_l [31:0] $end
$var reg 24 8 rx_data_l_shift [23:0] $end
$var reg 32 9 rx_data_r [31:0] $end
$var reg 24 : rx_data_r_shift [23:0] $end
$var reg 1 ; tx_axis_c_ready $end
$var reg 32 < tx_data_l [31:0] $end
$var reg 24 = tx_data_l_shift [23:0] $end
$var reg 32 > tx_data_r [31:0] $end
$var reg 24 ? tx_data_r_shift [23:0] $end
$var reg 1 @ tx_sdout $end
$upscope $end
$scope module dff $end
$var wire 1 A clk_i $end
$var wire 1 B d_i $end
$var wire 1 C q_o $end
$var wire 1 D reset_i $end
$var reg 1 E q_r $end
$upscope $end
$scope module inv $end
$var wire 1 F a_i $end
$var wire 1 G b_o $end
$upscope $end
$scope module lfsr $end
$var wire 1 H clk_i $end
$var wire 5 I data_o [4:0] $end
$var wire 1 J reset_i $end
$var reg 5 K dff_l [4:0] $end
$scope begin genblk1[1] $end
$upscope $end
$scope begin genblk1[2] $end
$upscope $end
$scope begin genblk1[3] $end
$upscope $end
$scope begin genblk1[4] $end
$upscope $end
$upscope $end
$scope module shift $end
$var wire 1 L clk_i $end
$var wire 1 M data_i $end
$var wire 5 N data_o [4:0] $end
$var wire 1 O reset_i $end
$var reg 5 P data_c [4:0] $end
$upscope $end
$scope module testbench $end
$var wire 1 Q second $end
$var wire 1 R reset_i $end
$var wire 32 S fstep_o [31:0] $end
$var wire 1 T clk_i $end
$var reg 1 U startbutton_i $end
$scope module cg $end
$var reg 1 T clk_o $end
$upscope $end
$scope module dut $end
$var wire 1 T clk_i $end
$var wire 32 V fstep_o [31:0] $end
$var wire 1 U startbutton_i $end
$var wire 1 Q second $end
$var wire 1 R reset_i $end
$var wire 1 W endofnotes $end
$var wire 25 X counterout [24:0] $end
$var reg 32 Y cfstep_l [31:0] $end
$var reg 1 Z counter_reset $end
$var reg 2 [ cstate_l [1:0] $end
$var reg 5 \ ncounter [4:0] $end
$var reg 32 ] nfstep_l [31:0] $end
$var reg 2 ^ nstate_l [1:0] $end
$scope module counter_inst $end
$var wire 1 T clk_i $end
$var wire 25 _ counter_o [24:0] $end
$var wire 1 ` down_i $end
$var wire 1 a reset_i $end
$var wire 1 b up_i $end
$var wire 1 c ofv $end
$var wire 25 d dffin_l [24:0] $end
$var reg 25 e addin_l [24:0] $end
$var reg 25 f dffout_l [24:0] $end
$scope begin genblk1[0] $end
$upscope $end
$scope begin genblk1[1] $end
$upscope $end
$scope begin genblk1[2] $end
$upscope $end
$scope begin genblk1[3] $end
$upscope $end
$scope begin genblk1[4] $end
$upscope $end
$scope begin genblk1[5] $end
$upscope $end
$scope begin genblk1[6] $end
$upscope $end
$scope begin genblk1[7] $end
$upscope $end
$scope begin genblk1[8] $end
$upscope $end
$scope begin genblk1[9] $end
$upscope $end
$scope begin genblk1[10] $end
$upscope $end
$scope begin genblk1[11] $end
$upscope $end
$scope begin genblk1[12] $end
$upscope $end
$scope begin genblk1[13] $end
$upscope $end
$scope begin genblk1[14] $end
$upscope $end
$scope begin genblk1[15] $end
$upscope $end
$scope begin genblk1[16] $end
$upscope $end
$scope begin genblk1[17] $end
$upscope $end
$scope begin genblk1[18] $end
$upscope $end
$scope begin genblk1[19] $end
$upscope $end
$scope begin genblk1[20] $end
$upscope $end
$scope begin genblk1[21] $end
$upscope $end
$scope begin genblk1[22] $end
$upscope $end
$scope begin genblk1[23] $end
$upscope $end
$scope begin genblk1[24] $end
$upscope $end
$scope module adder_inst $end
$var wire 25 g a_i [24:0] $end
$var wire 25 h b_i [24:0] $end
$var wire 26 i sum_o [25:0] $end
$upscope $end
$upscope $end
$upscope $end
$scope module rg $end
$var wire 1 j clk_i $end
$var wire 1 k phase_lo_r $end
$var wire 1 l phase_hi_r $end
$var wire 1 m in_phase_2 $end
$var wire 1 n in_phase_1 $end
$var wire 1 R async_reset_o $end
$var reg 2 o ctr_hi_r [1:0] $end
$var reg 2 p ctr_lo_r [1:0] $end
$scope begin rof[0] $end
$upscope $end
$upscope $end
$upscope $end
$enddefinitions $end
#0
$dumpvars
b0 p
b0 o
0n
0m
0l
0k
0j
bx i
b1 h
bx g
bx f
b1 e
bx d
xc
1b
xa
0`
bx _
b0 ^
bx ]
bx \
b0 [
xZ
bx Y
bx X
xW
bx V
0U
0T
bx S
0R
xQ
bx P
zO
bx N
zM
zL
bx K
zJ
bx I
zH
zG
zF
xE
zD
xC
zB
zA
x@
b0 ?
b0 >
b0 =
b0 <
0;
b0 :
b0 9
b0 8
b0 7
06
05
b0 4
b0 3
02
01
b0 0
0/
0.
z-
0,
z+
z*
bz )
z(
0'
z&
0%
z$
z#
z"
z!
$end
#22000
0a
0W
b0 \
0Z
1j
1T
#44000
b1 p
0j
0T
#66000
1j
1T
#88000
1a
1R
1n
1k
b10 p
0j
0T
#110000
b1 d
0c
0Q
b1 i
b0 X
b0 _
b0 f
b0 g
b0 S
b0 V
b0 Y
1j
1T
#132000
b1 o
0j
0T
#154000
b0 ]
1j
1T
#176000
0a
0R
1m
1l
b10 o
0j
0T
#198000
b10 d
b10 i
b1 X
b1 _
b1 f
b1 g
1j
1T
#220000
0j
0T
#242000
b11 d
b11 i
b10 X
b10 _
b10 f
b10 g
1j
1T
#264000
0j
0T
#286000
b100 d
b100 i
b11 X
b11 _
b11 f
b11 g
1j
1T
#308000
0j
0T
#330000
b101 d
b101 i
b100 X
b100 _
b100 f
b100 g
1j
1T
#352000
0j
0T
#374000
b110 d
b110 i
b101 X
b101 _
b101 f
b101 g
1j
1T
#396000
0j
0T
#418000
b111 d
b111 i
b110 X
b110 _
b110 f
b110 g
1j
1T
#440000
0j
0T
#462000
b1000 d
b1000 i
b111 X
b111 _
b111 f
b111 g
1j
1T
#484000
0j
0T
#500000
1U
#506000
b1001 d
b1 [
b1001 i
b1000 X
b1000 _
b1000 f
b1000 g
b1 ^
1j
1T
#528000
0j
0T
#550000
b1010 d
b1010 i
b1001 X
b1001 _
b1001 f
b1001 g
b10010000001011011110000000 ]
1j
1T
#572000
0j
0T
#594000
b1011 d
b10010000001011011110000000 S
b10010000001011011110000000 V
b10010000001011011110000000 Y
b1011 i
b1010 X
b1010 _
b1010 f
b1010 g
b10010000001011011110000000 ]
1j
1T
#600000
0U
#616000
0j
0T
#638000
b1100 d
b1100 i
b1011 X
b1011 _
b1011 f
b1011 g
1j
1T
#660000
0j
0T
#682000
b1101 d
b1101 i
b1100 X
b1100 _
b1100 f
b1100 g
1j
1T
#704000
0j
0T
#726000
b1110 d
b1110 i
b1101 X
b1101 _
b1101 f
b1101 g
1j
1T
#748000
0j
0T
#770000
b1111 d
b1111 i
b1110 X
b1110 _
b1110 f
b1110 g
1j
1T
#792000
0j
0T
#814000
b10000 d
b10000 i
b1111 X
b1111 _
b1111 f
b1111 g
1j
1T
#836000
0j
0T
#858000
b10001 d
b10001 i
b10000 X
b10000 _
b10000 f
b10000 g
1j
1T
#880000
0j
0T
#902000
b10010 d
b10010 i
b10001 X
b10001 _
b10001 f
b10001 g
1j
1T
#924000
0j
0T
#946000
b10011 d
b10011 i
b10010 X
b10010 _
b10010 f
b10010 g
1j
1T
#968000
0j
0T
#990000
b10100 d
b10100 i
b10011 X
b10011 _
b10011 f
b10011 g
1j
1T
#1012000
0j
0T
#1034000
b10101 d
b10101 i
b10100 X
b10100 _
b10100 f
b10100 g
1j
1T
#1056000
0j
0T
#1078000
b10110 d
b10110 i
b10101 X
b10101 _
b10101 f
b10101 g
1j
1T
#1100000
0j
0T
#1122000
b10111 d
b10111 i
b10110 X
b10110 _
b10110 f
b10110 g
1j
1T
#1144000
0j
0T
#1166000
b11000 d
b11000 i
b10111 X
b10111 _
b10111 f
b10111 g
1j
1T
#1188000
0j
0T
#1210000
b11001 d
b11001 i
b11000 X
b11000 _
b11000 f
b11000 g
1j
1T
#1232000
0j
0T
#1254000
b11010 d
b11010 i
b11001 X
b11001 _
b11001 f
b11001 g
1j
1T
#1276000
0j
0T
#1298000
b11011 d
b11011 i
b11010 X
b11010 _
b11010 f
b11010 g
1j
1T
#1320000
0j
0T
#1342000
b11100 d
b11100 i
b11011 X
b11011 _
b11011 f
b11011 g
1j
1T
#1364000
0j
0T
#1386000
b11101 d
b11101 i
b11100 X
b11100 _
b11100 f
b11100 g
1j
1T
#1408000
0j
0T
#1430000
b11110 d
b11110 i
b11101 X
b11101 _
b11101 f
b11101 g
1j
1T
#1452000
0j
0T
#1474000
b11111 d
b11111 i
b11110 X
b11110 _
b11110 f
b11110 g
1j
1T
#1496000
0j
0T
#1518000
b100000 d
b100000 i
b11111 X
b11111 _
b11111 f
b11111 g
1j
1T
#1540000
0j
0T
#1562000
b100001 d
b100001 i
b100000 X
b100000 _
b100000 f
b100000 g
1j
1T
#1584000
0j
0T
#1606000
b100010 d
b100010 i
b100001 X
b100001 _
b100001 f
b100001 g
b1 \
b10 ^
1j
1T
#1628000
0j
0T
#1650000
b100011 d
b10 \
b10101011011101010110010001 S
b10101011011101010110010001 V
b10101011011101010110010001 Y
b10 [
b100011 i
b100010 X
b100010 _
b100010 f
b100010 g
b10101011011101010110010001 ]
b10 ^
1j
1T
#1672000
0j
0T
#1694000
b100100 d
1a
b100100 i
b100011 X
b100011 _
b100011 f
b100011 g
1Z
b1 ^
b0 ]
1j
1T
#1716000
0j
0T
#1738000
b1 d
b0 S
b0 V
b0 Y
b1 [
1Z
b1 i
b0 X
b0 _
b0 f
b0 g
b0 ]
b1 ^
1j
1T
#1760000
0j
0T
#1782000
0a
0Z
b10010000001011011110000000 ]
1j
1T
#1804000
0j
0T
#1826000
b10 d
b10010000001011011110000000 S
b10010000001011011110000000 V
b10010000001011011110000000 Y
b10 i
b1 X
b1 _
b1 f
b1 g
b10010000001011011110000000 ]
1j
1T
#1848000
0j
0T
#1870000
b11 d
b11 i
b10 X
b10 _
b10 f
b10 g
1j
1T
#1892000
0j
0T
#1914000
b100 d
b100 i
b11 X
b11 _
b11 f
b11 g
1j
1T
#1936000
0j
0T
#1958000
b101 d
b101 i
b100 X
b100 _
b100 f
b100 g
1j
1T
#1980000
0j
0T
#2002000
b110 d
b110 i
b101 X
b101 _
b101 f
b101 g
1j
1T
#2024000
0j
0T
#2046000
b111 d
b111 i
b110 X
b110 _
b110 f
b110 g
1j
1T
#2068000
0j
0T
#2090000
b1000 d
b1000 i
b111 X
b111 _
b111 f
b111 g
1j
1T
#2112000
0j
0T
#2134000
b1001 d
b1001 i
b1000 X
b1000 _
b1000 f
b1000 g
1j
1T
#2156000
0j
0T
#2178000
b1010 d
b1010 i
b1001 X
b1001 _
b1001 f
b1001 g
1j
1T
#2200000
0j
0T
#2222000
b1011 d
b1011 i
b1010 X
b1010 _
b1010 f
b1010 g
1j
1T
#2244000
0j
0T
#2266000
b1100 d
b1100 i
b1011 X
b1011 _
b1011 f
b1011 g
1j
1T
#2288000
0j
0T
#2310000
b1101 d
b1101 i
b1100 X
b1100 _
b1100 f
b1100 g
1j
1T
#2332000
0j
0T
#2354000
b1110 d
b1110 i
b1101 X
b1101 _
b1101 f
b1101 g
1j
1T
#2376000
0j
0T
#2398000
b1111 d
b1111 i
b1110 X
b1110 _
b1110 f
b1110 g
1j
1T
#2420000
0j
0T
#2442000
b10000 d
b10000 i
b1111 X
b1111 _
b1111 f
b1111 g
1j
1T
#2464000
0j
0T
#2486000
b10001 d
b10001 i
b10000 X
b10000 _
b10000 f
b10000 g
1j
1T
#2508000
0j
0T
#2530000
b10010 d
b10010 i
b10001 X
b10001 _
b10001 f
b10001 g
1j
1T
#2552000
0j
0T
#2574000
b10011 d
b10011 i
b10010 X
b10010 _
b10010 f
b10010 g
1j
1T
#2596000
0j
0T
#2618000
b10100 d
b10100 i
b10011 X
b10011 _
b10011 f
b10011 g
1j
1T
#2640000
0j
0T
#2662000
b10101 d
b10101 i
b10100 X
b10100 _
b10100 f
b10100 g
1j
1T
#2684000
0j
0T
#2706000
b10110 d
b10110 i
b10101 X
b10101 _
b10101 f
b10101 g
1j
1T
#2728000
0j
0T
#2750000
b10111 d
b10111 i
b10110 X
b10110 _
b10110 f
b10110 g
1j
1T
#2772000
0j
0T
#2794000
b11000 d
b11000 i
b10111 X
b10111 _
b10111 f
b10111 g
1j
1T
#2816000
0j
0T
#2838000
b11001 d
b11001 i
b11000 X
b11000 _
b11000 f
b11000 g
1j
1T
#2860000
0j
0T
#2882000
b11010 d
b11010 i
b11001 X
b11001 _
b11001 f
b11001 g
1j
1T
#2904000
0j
0T
#2926000
b11011 d
b11011 i
b11010 X
b11010 _
b11010 f
b11010 g
1j
1T
#2948000
0j
0T
#2970000
b11100 d
b11100 i
b11011 X
b11011 _
b11011 f
b11011 g
1j
1T
#2992000
0j
0T
#3014000
b11101 d
b11101 i
b11100 X
b11100 _
b11100 f
b11100 g
1j
1T
#3036000
0j
0T
#3058000
b11110 d
b11110 i
b11101 X
b11101 _
b11101 f
b11101 g
1j
1T
#3080000
0j
0T
#3102000
b11111 d
b11111 i
b11110 X
b11110 _
b11110 f
b11110 g
1j
1T
#3124000
0j
0T
#3146000
b100000 d
b100000 i
b11111 X
b11111 _
b11111 f
b11111 g
1j
1T
#3168000
0j
0T
#3190000
b100001 d
b100001 i
b100000 X
b100000 _
b100000 f
b100000 g
1j
1T
#3212000
0j
0T
#3234000
b100010 d
b11 \
b10 [
b100010 i
b100001 X
b100001 _
b100001 f
b100001 g
b10 ^
1j
1T
#3256000
0j
0T
#3278000
b100011 d
1a
b100011 i
b100010 X
b100010 _
b100010 f
b100010 g
1Z
b1 ^
b0 ]
1j
1T
#3300000
0j
0T
#3322000
b1 d
b0 S
b0 V
b0 Y
b1 [
1Z
b1 i
b0 X
b0 _
b0 f
b0 g
b0 ]
b1 ^
1j
1T
#3344000
0j
0T
#3366000
0a
0Z
b10010000001011011110000000 ]
1j
1T
#3388000
0j
0T
#3410000
b10 d
b10010000001011011110000000 S
b10010000001011011110000000 V
b10010000001011011110000000 Y
b10 i
b1 X
b1 _
b1 f
b1 g
b10010000001011011110000000 ]
1j
1T
#3432000
0j
0T
#3454000
b11 d
b11 i
b10 X
b10 _
b10 f
b10 g
1j
1T
#3476000
0j
0T
#3498000
b100 d
b100 i
b11 X
b11 _
b11 f
b11 g
1j
1T
#3520000
0j
0T
#3542000
b101 d
b101 i
b100 X
b100 _
b100 f
b100 g
1j
1T
#3564000
0j
0T
#3586000
b110 d
b110 i
b101 X
b101 _
b101 f
b101 g
1j
1T
#3608000
0j
0T
#3630000
b111 d
b111 i
b110 X
b110 _
b110 f
b110 g
1j
1T
#3652000
0j
0T
#3674000
b1000 d
b1000 i
b111 X
b111 _
b111 f
b111 g
1j
1T
#3696000
0j
0T
#3718000
b1001 d
b1001 i
b1000 X
b1000 _
b1000 f
b1000 g
1j
1T
#3740000
0j
0T
#3762000
b1010 d
b1010 i
b1001 X
b1001 _
b1001 f
b1001 g
1j
1T
#3784000
0j
0T
#3806000
b1011 d
b1011 i
b1010 X
b1010 _
b1010 f
b1010 g
1j
1T
#3828000
0j
0T
#3850000
b1100 d
b1100 i
b1011 X
b1011 _
b1011 f
b1011 g
1j
1T
#3872000
0j
0T
#3894000
b1101 d
b1101 i
b1100 X
b1100 _
b1100 f
b1100 g
1j
1T
#3916000
0j
0T
#3938000
b1110 d
b1110 i
b1101 X
b1101 _
b1101 f
b1101 g
1j
1T
#3960000
0j
0T
#3982000
b1111 d
b1111 i
b1110 X
b1110 _
b1110 f
b1110 g
1j
1T
#4004000
0j
0T
#4026000
b10000 d
b10000 i
b1111 X
b1111 _
b1111 f
b1111 g
1j
1T
#4048000
0j
0T
#4070000
b10001 d
b10001 i
b10000 X
b10000 _
b10000 f
b10000 g
1j
1T
#4092000
0j
0T
#4114000
b10010 d
b10010 i
b10001 X
b10001 _
b10001 f
b10001 g
1j
1T
#4136000
0j
0T
#4158000
b10011 d
b10011 i
b10010 X
b10010 _
b10010 f
b10010 g
1j
1T
#4180000
0j
0T
#4202000
b10100 d
b10100 i
b10011 X
b10011 _
b10011 f
b10011 g
1j
1T
#4224000
0j
0T
#4246000
b10101 d
b10101 i
b10100 X
b10100 _
b10100 f
b10100 g
1j
1T
#4268000
0j
0T
#4290000
b10110 d
b10110 i
b10101 X
b10101 _
b10101 f
b10101 g
1j
1T
#4312000
0j
0T
#4334000
b10111 d
b10111 i
b10110 X
b10110 _
b10110 f
b10110 g
1j
1T
#4356000
0j
0T
#4378000
b11000 d
b11000 i
b10111 X
b10111 _
b10111 f
b10111 g
1j
1T
#4400000
0j
0T
#4422000
b11001 d
b11001 i
b11000 X
b11000 _
b11000 f
b11000 g
1j
1T
#4444000
0j
0T
#4466000
b11010 d
b11010 i
b11001 X
b11001 _
b11001 f
b11001 g
1j
1T
#4488000
0j
0T
#4510000
b11011 d
b11011 i
b11010 X
b11010 _
b11010 f
b11010 g
1j
1T
#4532000
0j
0T
#4554000
b11100 d
b11100 i
b11011 X
b11011 _
b11011 f
b11011 g
1j
1T
#4576000
0j
0T
#4598000
b11101 d
b11101 i
b11100 X
b11100 _
b11100 f
b11100 g
1j
1T
#4620000
0j
0T
#4642000
b11110 d
b11110 i
b11101 X
b11101 _
b11101 f
b11101 g
1j
1T
#4664000
0j
0T
#4686000
b11111 d
b11111 i
b11110 X
b11110 _
b11110 f
b11110 g
1j
1T
#4708000
0j
0T
#4730000
b100000 d
b100000 i
b11111 X
b11111 _
b11111 f
b11111 g
1j
1T
#4752000
0j
0T
#4774000
b100001 d
b100001 i
b100000 X
b100000 _
b100000 f
b100000 g
1j
1T
#4796000
0j
0T
#4818000
b100010 d
b100 \
b10 [
b100010 i
b100001 X
b100001 _
b100001 f
b100001 g
b10 ^
1j
1T
#4840000
0j
0T
#4862000
b100011 d
1a
b100011 i
b100010 X
b100010 _
b100010 f
b100010 g
1Z
b1 ^
b0 ]
1j
1T
#4884000
0j
0T
#4906000
b1 d
b0 S
b0 V
b0 Y
b1 [
1Z
b1 i
b0 X
b0 _
b0 f
b0 g
b0 ]
b1 ^
1j
1T
#4928000
0j
0T
#4950000
0a
0Z
b1100000001110011111110010 ]
1j
1T
#4972000
0j
0T
#4994000
b10 d
b1100000001110011111110010 S
b1100000001110011111110010 V
b1100000001110011111110010 Y
b10 i
b1 X
b1 _
b1 f
b1 g
b1100000001110011111110010 ]
1j
1T
#5016000
0j
0T
#5038000
b11 d
b11 i
b10 X
b10 _
b10 f
b10 g
1j
1T
#5060000
0j
0T
#5082000
b100 d
b100 i
b11 X
b11 _
b11 f
b11 g
1j
1T
#5104000
0j
0T
#5126000
b101 d
b101 i
b100 X
b100 _
b100 f
b100 g
1j
1T
#5148000
0j
0T
#5170000
b110 d
b110 i
b101 X
b101 _
b101 f
b101 g
1j
1T
#5192000
0j
0T
#5214000
b111 d
b111 i
b110 X
b110 _
b110 f
b110 g
1j
1T
#5236000
0j
0T
#5258000
b1000 d
b1000 i
b111 X
b111 _
b111 f
b111 g
1j
1T
#5280000
0j
0T
#5302000
b1001 d
b1001 i
b1000 X
b1000 _
b1000 f
b1000 g
1j
1T
#5324000
0j
0T
#5346000
b1010 d
b1010 i
b1001 X
b1001 _
b1001 f
b1001 g
1j
1T
#5368000
0j
0T
#5390000
b1011 d
b1011 i
b1010 X
b1010 _
b1010 f
b1010 g
1j
1T
#5412000
0j
0T
#5434000
b1100 d
b1100 i
b1011 X
b1011 _
b1011 f
b1011 g
1j
1T
#5456000
0j
0T
#5478000
b1101 d
b1101 i
b1100 X
b1100 _
b1100 f
b1100 g
1j
1T
#5500000
0j
0T
#5522000
b1110 d
b1110 i
b1101 X
b1101 _
b1101 f
b1101 g
1j
1T
#5544000
0j
0T
#5566000
b1111 d
b1111 i
b1110 X
b1110 _
b1110 f
b1110 g
1j
1T
#5588000
0j
0T
#5610000
b10000 d
b10000 i
b1111 X
b1111 _
b1111 f
b1111 g
1j
1T
#5632000
0j
0T
#5654000
b10001 d
b10001 i
b10000 X
b10000 _
b10000 f
b10000 g
1j
1T
#5676000
0j
0T
#5698000
b10010 d
b10010 i
b10001 X
b10001 _
b10001 f
b10001 g
1j
1T
#5720000
0j
0T
#5742000
b10011 d
b10011 i
b10010 X
b10010 _
b10010 f
b10010 g
1j
1T
#5764000
0j
0T
#5786000
b10100 d
b10100 i
b10011 X
b10011 _
b10011 f
b10011 g
1j
1T
#5808000
0j
0T
#5830000
b10101 d
b10101 i
b10100 X
b10100 _
b10100 f
b10100 g
1j
1T
#5852000
0j
0T
#5874000
b10110 d
b10110 i
b10101 X
b10101 _
b10101 f
b10101 g
1j
1T
#5896000
0j
0T
#5918000
b10111 d
b10111 i
b10110 X
b10110 _
b10110 f
b10110 g
1j
1T
#5940000
0j
0T
#5962000
b11000 d
b11000 i
b10111 X
b10111 _
b10111 f
b10111 g
1j
1T
#5984000
0j
0T
#6006000
b11001 d
b11001 i
b11000 X
b11000 _
b11000 f
b11000 g
1j
1T
#6028000
0j
0T
#6050000
b11010 d
b11010 i
b11001 X
b11001 _
b11001 f
b11001 g
1j
1T
#6072000
0j
0T
#6094000
b11011 d
b11011 i
b11010 X
b11010 _
b11010 f
b11010 g
1j
1T
#6116000
0j
0T
#6138000
b11100 d
b11100 i
b11011 X
b11011 _
b11011 f
b11011 g
1j
1T
#6160000
0j
0T
#6182000
b11101 d
b11101 i
b11100 X
b11100 _
b11100 f
b11100 g
1j
1T
#6204000
0j
0T
#6226000
b11110 d
b11110 i
b11101 X
b11101 _
b11101 f
b11101 g
1j
1T
#6248000
0j
0T
#6270000
b11111 d
b11111 i
b11110 X
b11110 _
b11110 f
b11110 g
1j
1T
#6292000
0j
0T
#6314000
b100000 d
b100000 i
b11111 X
b11111 _
b11111 f
b11111 g
1j
1T
#6336000
0j
0T
#6358000
b100001 d
b100001 i
b100000 X
b100000 _
b100000 f
b100000 g
1j
1T
#6380000
0j
0T
#6402000
b100010 d
b101 \
b10 [
b100010 i
b100001 X
b100001 _
b100001 f
b100001 g
b10 ^
1j
1T
#6424000
0j
0T
#6446000
b100011 d
1a
b100011 i
b100010 X
b100010 _
b100010 f
b100010 g
1Z
b1 ^
b0 ]
1j
1T
#6468000
0j
0T
#6490000
b1 d
b0 S
b0 V
b0 Y
b1 [
1Z
b1 i
b0 X
b0 _
b0 f
b0 g
b0 ]
b1 ^
1j
1T
#6512000
0j
0T
#6534000
0a
0Z
b10010000001011011110000000 ]
1j
1T
#6556000
0j
0T
#6578000
b10 d
b10010000001011011110000000 S
b10010000001011011110000000 V
b10010000001011011110000000 Y
b10 i
b1 X
b1 _
b1 f
b1 g
b10010000001011011110000000 ]
1j
1T
#6600000
0j
0T
#6622000
b11 d
b11 i
b10 X
b10 _
b10 f
b10 g
1j
1T
#6644000
0j
0T
#6666000
b100 d
b100 i
b11 X
b11 _
b11 f
b11 g
1j
1T
#6688000
0j
0T
#6710000
b101 d
b101 i
b100 X
b100 _
b100 f
b100 g
1j
1T
#6732000
0j
0T
#6754000
b110 d
b110 i
b101 X
b101 _
b101 f
b101 g
1j
1T
#6776000
0j
0T
#6798000
b111 d
b111 i
b110 X
b110 _
b110 f
b110 g
1j
1T
#6820000
0j
0T
#6842000
b1000 d
b1000 i
b111 X
b111 _
b111 f
b111 g
1j
1T
#6864000
0j
0T
#6886000
b1001 d
b1001 i
b1000 X
b1000 _
b1000 f
b1000 g
1j
1T
#6908000
0j
0T
#6930000
b1010 d
b1010 i
b1001 X
b1001 _
b1001 f
b1001 g
1j
1T
#6952000
0j
0T
#6974000
b1011 d
b1011 i
b1010 X
b1010 _
b1010 f
b1010 g
1j
1T
#6996000
0j
0T
#7018000
b1100 d
b1100 i
b1011 X
b1011 _
b1011 f
b1011 g
1j
1T
#7040000
0j
0T
#7062000
b1101 d
b1101 i
b1100 X
b1100 _
b1100 f
b1100 g
1j
1T
#7084000
0j
0T
#7106000
b1110 d
b1110 i
b1101 X
b1101 _
b1101 f
b1101 g
1j
1T
#7128000
0j
0T
#7150000
b1111 d
b1111 i
b1110 X
b1110 _
b1110 f
b1110 g
1j
1T
#7172000
0j
0T
#7194000
b10000 d
b10000 i
b1111 X
b1111 _
b1111 f
b1111 g
1j
1T
#7216000
0j
0T
#7238000
b10001 d
b10001 i
b10000 X
b10000 _
b10000 f
b10000 g
1j
1T
#7260000
0j
0T
#7282000
b10010 d
b10010 i
b10001 X
b10001 _
b10001 f
b10001 g
1j
1T
#7304000
0j
0T
#7326000
b10011 d
b10011 i
b10010 X
b10010 _
b10010 f
b10010 g
1j
1T
#7348000
0j
0T
#7370000
b10100 d
b10100 i
b10011 X
b10011 _
b10011 f
b10011 g
1j
1T
#7392000
0j
0T
#7414000
b10101 d
b10101 i
b10100 X
b10100 _
b10100 f
b10100 g
1j
1T
#7436000
0j
0T
#7458000
b10110 d
b10110 i
b10101 X
b10101 _
b10101 f
b10101 g
1j
1T
#7480000
0j
0T
#7502000
b10111 d
b10111 i
b10110 X
b10110 _
b10110 f
b10110 g
1j
1T
#7524000
0j
0T
#7546000
b11000 d
b11000 i
b10111 X
b10111 _
b10111 f
b10111 g
1j
1T
#7568000
0j
0T
#7590000
b11001 d
b11001 i
b11000 X
b11000 _
b11000 f
b11000 g
1j
1T
#7612000
0j
0T
#7634000
b11010 d
b11010 i
b11001 X
b11001 _
b11001 f
b11001 g
1j
1T
#7656000
0j
0T
#7678000
b11011 d
b11011 i
b11010 X
b11010 _
b11010 f
b11010 g
1j
1T
#7700000
0j
0T
#7722000
b11100 d
b11100 i
b11011 X
b11011 _
b11011 f
b11011 g
1j
1T
#7744000
0j
0T
#7766000
b11101 d
b11101 i
b11100 X
b11100 _
b11100 f
b11100 g
1j
1T
#7788000
0j
0T
#7810000
b11110 d
b11110 i
b11101 X
b11101 _
b11101 f
b11101 g
1j
1T
#7832000
0j
0T
#7854000
b11111 d
b11111 i
b11110 X
b11110 _
b11110 f
b11110 g
1j
1T
#7876000
0j
0T
#7898000
b100000 d
b100000 i
b11111 X
b11111 _
b11111 f
b11111 g
1j
1T
#7920000
0j
0T
#7942000
b100001 d
b100001 i
b100000 X
b100000 _
b100000 f
b100000 g
1j
1T
#7964000
0j
0T
#7986000
b100010 d
b110 \
b10 [
b100010 i
b100001 X
b100001 _
b100001 f
b100001 g
b10 ^
1j
1T
#8008000
0j
0T
#8030000
b100011 d
1a
b100011 i
b100010 X
b100010 _
b100010 f
b100010 g
1Z
b1 ^
b0 ]
1j
1T
#8052000
0j
0T
#8074000
b1 d
b0 S
b0 V
b0 Y
b1 [
1Z
b1 i
b0 X
b0 _
b0 f
b0 g
b0 ]
b1 ^
1j
1T
#8096000
0j
0T
#8118000
0a
0Z
b10000000011100110101100000 ]
1j
1T
#8140000
0j
0T
#8162000
b10 d
b10000000011100110101100000 S
b10000000011100110101100000 V
b10000000011100110101100000 Y
b10 i
b1 X
b1 _
b1 f
b1 g
b10000000011100110101100000 ]
1j
1T
#8184000
0j
0T
#8206000
b11 d
b11 i
b10 X
b10 _
b10 f
b10 g
1j
1T
#8228000
0j
0T
#8250000
b100 d
b100 i
b11 X
b11 _
b11 f
b11 g
1j
1T
#8272000
0j
0T
#8294000
b101 d
b101 i
b100 X
b100 _
b100 f
b100 g
1j
1T
#8316000
0j
0T
#8338000
b110 d
b110 i
b101 X
b101 _
b101 f
b101 g
1j
1T
#8360000
0j
0T
#8382000
b111 d
b111 i
b110 X
b110 _
b110 f
b110 g
1j
1T
#8404000
0j
0T
#8426000
b1000 d
b1000 i
b111 X
b111 _
b111 f
b111 g
1j
1T
#8448000
0j
0T
#8470000
b1001 d
b1001 i
b1000 X
b1000 _
b1000 f
b1000 g
1j
1T
#8492000
0j
0T
#8514000
b1010 d
b1010 i
b1001 X
b1001 _
b1001 f
b1001 g
1j
1T
#8536000
0j
0T
#8558000
b1011 d
b1011 i
b1010 X
b1010 _
b1010 f
b1010 g
1j
1T
#8580000
0j
0T
#8602000
b1100 d
b1100 i
b1011 X
b1011 _
b1011 f
b1011 g
1j
1T
#8624000
0j
0T
#8646000
b1101 d
b1101 i
b1100 X
b1100 _
b1100 f
b1100 g
1j
1T
#8668000
0j
0T
#8690000
b1110 d
b1110 i
b1101 X
b1101 _
b1101 f
b1101 g
1j
1T
#8712000
0j
0T
#8734000
b1111 d
b1111 i
b1110 X
b1110 _
b1110 f
b1110 g
1j
1T
#8756000
0j
0T
#8778000
b10000 d
b10000 i
b1111 X
b1111 _
b1111 f
b1111 g
1j
1T
#8800000
0j
0T
#8822000
b10001 d
b10001 i
b10000 X
b10000 _
b10000 f
b10000 g
1j
1T
#8844000
0j
0T
#8866000
b10010 d
b10010 i
b10001 X
b10001 _
b10001 f
b10001 g
1j
1T
#8888000
0j
0T
#8910000
b10011 d
b10011 i
b10010 X
b10010 _
b10010 f
b10010 g
1j
1T
#8932000
0j
0T
